<?xml version="1.0" encoding="utf-8"?>
<!-- Generator: Adobe Illustrator 25.0.1, SVG Export Plug-In . SVG Version: 6.00 Build 0)  -->
<svg version="1.1" id="Layer_1" xmlns="http://www.w3.org/2000/svg" xmlns:xlink="http://www.w3.org/1999/xlink" x="0px" y="0px"
	 viewBox="0 0 1396 495" style="enable-background:new 0 0 1396 495;" xml:space="preserve">
<style type="text/css">
	.st0{fill:#FFFFFF;}
	.st1{fill:#5566AF;}
</style>
<g>
	<path class="st0" d="M675.18,5.03c1.66,1.05,3.5,0.58,5.25,0.55c34.44-0.45,68.81,0.85,103.05,4.52
		c92.1,9.87,180.5,33.25,264.38,73c51.36,24.34,99.3,54.09,143.12,90.37c32.28,26.73,61.51,56.44,87.19,89.62
		c1.91,2.47,1.93,3.99-0.69,5.73c-3.89,2.58-6.83,8.57-11,8.02c-3.66-0.48-6.74-5.66-10.02-8.82
		c-48.72-46.97-103.39-85.62-163.4-116.76c-70.9-36.8-145.83-61.99-224.11-77.34c-40.18-7.88-80.73-12.96-121.65-15.21
		c-25.74-1.42-51.49-2.29-77.25-1.53c-125.74,3.7-246.05,30.21-359.06,86.65c-64.09,32-122.02,72.74-172.83,123.41
		c-0.12,0.12-0.23,0.23-0.35,0.35c-3.58,3.47-6.54,7.62-10.87,10.3c-4.94-3.98-9.9-7.94-14.81-11.95c-2.3-1.87-0.17-3.18,0.79-4.45
		c16.46-22,34.71-42.41,54.52-61.42C239.5,130.87,324.28,82.92,418.14,50.29c51.08-17.76,103.54-29.87,157.1-37.13
		c28.44-3.85,57.02-6.31,85.72-7.18c1.17-0.04,2.67,0.68,3.45-0.95C668,5.03,671.59,5.03,675.18,5.03z"/>
	<path class="st0" d="M84.72,489.97c-1.86-2.01-4.51-1.31-6.74-1.72c-36.07-6.72-60.81-34.47-62.96-70.88
		c-1.68-28.58,6.84-53.11,29.53-71.49c34.44-27.88,103.23-21.64,117.45,42.88c2.33,10.56,3.13,21.24,2.52,32.06
		c-0.2,3.58-1.32,4.5-4.91,4.49c-31.99-0.16-63.97-0.09-95.96-0.09c-5.83,0-5.83,0-3.85,5.69c5.44,15.6,19.71,24.62,37.03,23.75
		c12.4-0.63,23.09-5.16,32.24-13.37c2.23-2,3.63-2.16,5.92-0.03c6.32,5.89,12.82,11.59,19.4,17.18c2.12,1.8,2.65,2.93,0.53,5.25
		c-13.51,14.85-29.98,23.72-50.14,25.35c-0.89,0.07-2.02-0.38-2.45,0.93C96.47,489.97,90.6,489.97,84.72,489.97z M89.83,397.63
		c9.61,0,19.22,0,28.84,0c1.8,0,3.83,0.35,3.15-2.66c-2.2-9.77-5.9-18.77-14.62-24.47c-9.93-6.5-20.7-6.8-31.13-1.66
		c-10.75,5.3-15.49,15.25-17.97,26.48c-0.65,2.93,1.41,2.29,2.9,2.3C70.61,397.65,80.22,397.63,89.83,397.63z"/>
	<path class="st0" d="M579.22,489.97c-3.72-2.08-8-1.84-11.99-2.78c-38.76-9.16-61.97-44.34-57.98-85.08
		c2.17-22.18,11.12-40.92,28.4-55.44c34.26-28.8,105.26-23.16,118.86,43.59c2.06,10.13,2.45,20.32,2.15,30.63
		c-0.11,3.89-1.48,4.41-4.89,4.4c-32.14-0.12-64.28,0.01-96.41-0.17c-4.45-0.02-5.15,0.91-3.74,5.1
		c5.77,17.04,21.87,26.5,40.97,24.17c10.92-1.33,20.34-5.69,28.37-12.93c2.78-2.51,4.24-2.08,6.69,0.23
		c6.17,5.8,12.53,11.42,19.04,16.85c2.41,2.01,2.22,3.16,0.24,5.32c-13.55,14.79-29.98,23.71-50.19,25.14
		c-0.78,0.06-1.66-0.12-1.91,0.98C590.97,489.97,585.09,489.97,579.22,489.97z M616.29,397.63c-0.35-2.06-0.53-3.51-0.84-4.93
		c-3.83-17.38-16.19-27.7-32.47-27.15c-15.28,0.52-30.11,14.99-31.01,30.09c-0.13,2.12,0.99,1.99,2.33,1.99
		C574.82,397.63,595.35,397.63,616.29,397.63z"/>
	<path class="st0" d="M1300.89,489.97c-1.66-2.04-4.18-1.28-6.24-1.68c-40.1-7.63-65.76-40.52-63.48-81.35
		c1.56-27.96,12.56-50.7,36.72-65.85c34.07-21.35,96.01-14.32,110.34,46.75c1.09,4.64,0.86,9.54,2.96,13.95c0,7.84,0,15.67,0,23.51
		c-34.4-0.03-68.8-0.03-103.21-0.17c-3.08-0.01-3.44,0.82-2.61,3.51c3.75,12.24,11.26,20.81,23.84,24.17
		c17.47,4.67,32.78,0.11,46.23-11.52c2.12-1.83,3.57-2.38,5.95-0.13c6.39,6.04,13.01,11.85,19.7,17.56c2.11,1.8,2.12,2.83,0.27,4.89
		c-13.8,15.4-30.88,24.05-51.52,25.6c-5.66,0.35-11.39-0.98-16.99,0.75C1302.19,489.97,1301.54,489.97,1300.89,489.97z
		 M1305.84,397.63c9.63,0,19.26,0.01,28.88-0.01c1.68,0,3.59,0.61,3.46-2.48c-0.61-14.85-14.98-29.07-30.11-29.59
		c-16.5-0.57-28.25,9.24-33.14,27.36c-0.96,3.56-0.68,4.94,3.5,4.81C1287.56,397.44,1296.7,397.63,1305.84,397.63z"/>
	<path class="st1" d="M1319.83,489.22c0.21,0.25,0.42,0.5,0.64,0.75c-5.88,0-11.75,0-17.63,0
		C1308.44,488.24,1314.17,489.57,1319.83,489.22z"/>
	<path class="st0" d="M734.17,353.99c4.57-4.22,7.77-8.49,11.87-11.89c18.78-15.61,48.37-15.69,66.26-0.04
		c3.1,2.71,5.75,5.83,7.73,9.4c1.41,2.53,2.22,2.83,4.32,0.49c8.09-9.01,17.64-15.97,29.55-19.05c15.98-4.13,31.75-3.84,46.43,4.44
		c14.58,8.23,20.94,21.91,22.49,37.94c1.77,18.23,0.53,36.53,0.72,54.81c0.18,17.14-0.06,34.29,0.12,51.43
		c0.04,3.54-0.67,4.75-4.5,4.66c-11.58-0.28-23.17-0.26-34.76-0.01c-3.63,0.08-4.6-0.81-4.58-4.53c0.18-26.61,0.07-53.23,0.12-79.84
		c0.01-4.43-0.3-8.82-1.39-13.09c-3.15-12.38-11.94-18.64-25.3-18.24c-11.88,0.36-20.94,8.03-23.3,19.87
		c-0.7,3.51-1.1,7.06-1.09,10.68c0.07,26.94-0.03,53.88,0.12,80.82c0.02,3.37-0.71,4.39-4.22,4.32c-11.74-0.24-23.5-0.28-35.24,0.01
		c-3.9,0.1-4.46-1.26-4.44-4.71c0.14-26.61,0.09-53.23,0.06-79.84c-0.01-3.9-0.09-7.79-1.04-11.65
		c-3.35-13.71-12.06-20.26-26.21-19.5c-12.46,0.67-21.39,9.42-23.08,22.44c-0.57,4.39-0.66,8.77-0.66,13.18
		c0.02,25.31-0.04,50.61,0.07,75.92c0.01,3.02-0.52,4.21-3.91,4.14c-12.07-0.23-24.15-0.17-36.23-0.03
		c-2.72,0.03-3.56-0.67-3.55-3.49c0.09-48.49,0.08-96.98,0-145.47c0-2.89,0.61-3.95,3.75-3.9c12.07,0.19,24.15,0.2,36.23,0
		c3.2-0.05,3.81,1.1,3.71,3.95C734.04,342.49,734.17,347.81,734.17,353.99z"/>
	<path class="st0" d="M1004.19,354.56c10.13-12.13,20.96-21,35.88-23.18c31.82-4.64,59.8,9.35,72.6,38.91
		c14.77,34.12,12.58,67.45-11.75,97.19c-19.71,24.09-65.86,32.27-92.67,3.46c-1.07-1.15-1.81-2.59-2.7-3.9
		c-0.45,0.3-0.91,0.59-1.36,0.89c0,4.98-0.15,9.97,0.06,14.95c0.11,2.63-0.79,3.25-3.29,3.23c-12.23-0.12-24.46-0.14-36.69,0.01
		c-2.86,0.04-3.46-0.88-3.46-3.59c0.07-66.9,0.07-133.8,0-200.7c0-2.76,0.73-3.57,3.51-3.54c11.9,0.15,23.81,0.21,35.72-0.03
		c3.47-0.07,4.28,0.88,4.25,4.29c-0.17,22.03-0.09,44.06-0.09,66.08C1004.19,350.21,1004.19,351.79,1004.19,354.56z M1003.88,410.43
		c-0.31,8.93,2.16,17.75,7.33,25.73c12.27,18.93,38.08,21.62,54.07,5.72c16.7-16.61,16.51-48.15-0.37-64.6
		c-15.1-14.71-39.23-12.98-52,3.79C1006.46,389.54,1003.67,399.22,1003.88,410.43z"/>
	<path class="st0" d="M240.1,354.48c8.86-10.81,17.93-19.18,30.52-22.19c28.82-6.89,63.65,4.39,65.4,48.77
		c1.34,33.9,0.29,67.9,0.42,101.86c0.01,2.69-0.86,3.21-3.33,3.19c-12.07-0.12-24.15-0.18-36.22,0.03c-3.41,0.06-4.35-0.85-4.34-4.3
		c0.15-26.77,0.09-53.55,0.07-80.32c0-2.28-0.05-4.57-0.23-6.85c-1.22-15.28-10.82-24.27-25.81-24.21
		c-14.86,0.05-25.6,9.7-26.08,24.73c-0.61,19.24-0.32,38.52-0.39,57.78c-0.04,9.8-0.13,19.59,0.07,29.38
		c0.06,3.09-0.9,3.82-3.86,3.78c-12.07-0.16-24.15-0.19-36.22,0.01c-3.16,0.05-3.71-1-3.7-3.89c0.09-48.32,0.1-96.65-0.01-144.97
		c-0.01-3.3,1.01-4.07,4.14-4.02c11.91,0.17,23.82,0.16,35.73,0.01c2.93-0.04,4.05,0.7,3.92,3.79
		C239.93,342.4,240.1,347.77,240.1,354.48z"/>
	<path class="st0" d="M421.17,331.12c23.98,0.13,41.64,6.03,58.25,15.73c2.59,1.51,2.79,2.63,1.29,5.19
		c-4.52,7.72-8.9,15.53-12.95,23.5c-1.64,3.22-3.1,3.08-5.84,1.56c-10.43-5.77-21.27-10.48-33.24-12.09
		c-4.61-0.62-9.11-0.43-13.44,1.33c-3.53,1.43-5.99,3.83-6.49,7.84c-0.49,3.92,1.47,6.5,4.5,8.55c7.37,4.99,15.82,7.47,24.13,10.22
		c8.49,2.8,16.96,5.66,24.81,9.98c14.76,8.12,24.05,19.88,23.64,37.51c-0.47,20.04-8.95,35.11-28.09,42.92
		c-20.94,8.54-42.06,6.86-63.12,0.37c-10.98-3.38-20.88-8.94-30.25-15.55c-2.34-1.65-2.74-2.78-0.97-5.34
		c5.18-7.5,10.06-15.21,14.89-22.93c1.44-2.3,2.4-2.59,4.78-0.94c12.45,8.65,25.93,14.84,41.27,16.26c4.6,0.43,9.14,0.22,13.53-1.11
		c4.45-1.35,7.81-3.89,8.33-9.05c0.51-5.03-2.29-7.93-6.26-10.04c-7.96-4.23-16.77-6.07-25.25-8.81c-6.96-2.25-14-4.33-20.52-7.7
		c-14.18-7.34-23.72-18-24.74-34.79c-1.11-18.42,5.31-33.26,20.93-43.48C401.06,333.24,413.1,330.89,421.17,331.12z"/>
	<path class="st0" d="M1198.07,382.43c0,32.97-0.06,65.94,0.09,98.9c0.02,3.72-0.77,4.92-4.71,4.82
		c-11.74-0.29-23.49-0.19-35.23-0.04c-2.75,0.03-3.54-0.72-3.53-3.51c0.08-66.92,0.09-133.83-0.03-200.75
		c-0.01-3.39,1.36-3.56,4-3.54c11.74,0.11,23.49,0.19,35.23-0.04c3.45-0.07,4.28,0.85,4.26,4.28
		C1198.02,315.84,1198.07,349.13,1198.07,382.43z"/>
</g>
</svg>
