<svg width="341" height="324" viewBox="0 0 341 324" fill="none" xmlns="http://www.w3.org/2000/svg">
<path opacity="0.2" d="M176.396 324C246.153 324 302.703 320.606 302.703 316.42C302.703 312.233 246.153 308.84 176.396 308.84C106.638 308.84 50.0887 312.233 50.0887 316.42C50.0887 320.606 106.638 324 176.396 324Z" fill="#D6D8E5"/>
<path d="M169.435 33.5963C170.74 25.5583 165.281 17.9848 157.243 16.6802C149.205 15.3757 141.632 20.8343 140.327 28.8722C139.023 36.9102 144.481 44.4838 152.519 45.7883C160.557 47.0928 168.131 41.6343 169.435 33.5963Z" fill="#3F4FD3"/>
<path d="M163.376 27.7477H161.027H160.076H158.263C158.144 27.7477 158.025 27.6288 158.055 27.5099C158.263 26.7668 158.292 25.9642 158.292 25.221C158.292 24.8048 158.322 24.3292 158.263 23.8833C158.203 23.4077 158.114 22.9618 157.817 22.6051C157.52 22.2187 157.074 21.9214 156.568 21.9214C155.409 21.9214 155.201 23.0807 155.112 24.0022C154.993 25.0724 154.933 26.202 154.458 27.2127C154.131 27.9261 153.655 28.5206 152.912 28.8179C152.347 29.0557 151.931 29.234 151.307 29.353C151.218 29.3827 151.158 29.4421 151.158 29.561V37.1412C151.158 37.2601 151.247 37.3493 151.366 37.3493H153.477C153.536 37.3493 153.596 37.379 153.625 37.4385C154.042 38.0033 154.696 38.36 155.439 38.36H158.709H161.087H162.038C162.989 38.36 163.792 37.5871 163.792 36.6062C163.792 36.3684 163.732 36.1305 163.613 35.9225C163.584 35.8333 163.584 35.7441 163.673 35.6846C164.03 35.3874 164.267 34.7631 164.267 34.2578V34.0497C164.267 33.8119 164.208 33.5741 164.089 33.366C164.059 33.2768 164.059 33.1876 164.149 33.1282C164.505 32.8309 164.743 32.4148 164.743 31.9094V31.7013C164.743 31.4635 164.684 31.2257 164.565 31.0176C164.535 30.9284 164.535 30.8393 164.624 30.7798C164.981 30.4826 165.219 30.0664 165.219 29.561C165.1 28.5503 164.327 27.7477 163.376 27.7477Z" fill="white"/>
<path d="M149.583 38.033H146.491C146.224 38.033 146.016 37.8249 146.016 37.5574V28.907C146.016 28.6395 146.224 28.4314 146.491 28.4314H149.583C149.85 28.4314 150.058 28.6395 150.058 28.907V37.5574C150.058 37.8249 149.82 38.033 149.583 38.033Z" fill="white"/>
<path d="M17.598 305.838L114.803 297.366C123.186 296.622 129.607 289.637 129.607 281.224V57.3854C129.607 48.9728 123.156 41.9574 114.773 41.244L17.5682 32.9801C8.11527 32.1775 0 39.6388 0 49.1215V289.666C0 299.179 8.145 306.64 17.598 305.838Z" fill="#1D265B"/>
<path d="M16.5278 305.421L121.61 297.009C126.129 296.652 129.607 292.877 129.607 288.329V51.0535C129.607 46.5351 126.158 42.7896 121.67 42.3734L16.5872 33.2177C11.504 32.7718 7.13428 36.7849 7.13428 41.8978V296.741C7.13428 301.824 11.4743 305.808 16.5278 305.421Z" fill="#3F4FD3"/>
<path d="M19.2626 300.398L119.113 291.926C122.264 291.658 124.702 289.012 124.702 285.832V53.61C124.702 50.4293 122.264 47.7837 119.113 47.5161L19.2626 39.0442C15.6955 38.7469 12.6337 41.5412 12.6337 45.138V294.304C12.6337 297.901 15.6955 300.695 19.2626 300.398Z" fill="#D6D8E5"/>
<path d="M20.5112 219.661H118.905C119.232 219.661 119.5 219.393 119.5 219.066V83.2173C119.5 82.8903 119.232 82.6227 118.905 82.6227L20.5112 76.6775C20.1842 76.6775 19.9166 76.945 19.9166 77.272V219.066C19.9166 219.393 20.1842 219.661 20.5112 219.661Z" fill="white"/>
<path d="M45.6299 48.6161L36.6823 47.9622" stroke="white" stroke-width="4" stroke-miterlimit="10"/>
<path d="M30.4991 47.4864L21.5515 46.8027" stroke="white" stroke-width="4" stroke-miterlimit="10"/>
<path d="M71.4744 270.986C78.0571 270.915 83.3333 265.295 83.2591 258.433C83.1849 251.571 77.7884 246.066 71.2057 246.137C64.623 246.209 59.3468 251.829 59.421 258.691C59.4952 265.552 64.8917 271.057 71.4744 270.986Z" fill="#3F4FD3"/>
<path d="M71.1944 243.412C76.1884 243.293 80.6771 245.85 83.3524 249.833C84.9577 252.211 85.9386 255.095 85.9981 258.246" stroke="#3F4FD3" stroke-width="3" stroke-miterlimit="10"/>
<path d="M60.4632 268.353C58.3823 265.796 57.1041 262.497 57.0149 258.87C56.9258 255.214 58.1148 251.825 60.1362 249.149" stroke="#3F4FD3" stroke-width="3" stroke-miterlimit="10"/>
<path d="M80.5285 270.314C78.1206 272.395 75.0291 273.644 71.67 273.733" stroke="#3F4FD3" stroke-width="3" stroke-miterlimit="10"/>
<path d="M36.0932 268.252C40.821 268.201 44.6104 264.167 44.5571 259.242C44.5039 254.317 40.6281 250.367 35.9004 250.418C31.1727 250.469 27.3833 254.503 27.4365 259.427C27.4898 264.352 31.3655 268.303 36.0932 268.252Z" stroke="#192244" stroke-width="3" stroke-miterlimit="10"/>
<path d="M107.523 266.676C112.25 266.625 116.04 262.592 115.987 257.667C115.933 252.742 112.058 248.791 107.33 248.842C102.602 248.894 98.8126 252.927 98.8659 257.852C98.9192 262.777 102.795 266.728 107.523 266.676Z" stroke="#192244" stroke-width="3" stroke-miterlimit="10"/>
<path d="M110.542 254.412L104.212 254.552L104.359 261.18L110.689 261.04L110.542 254.412Z" stroke="#192244" stroke-width="3" stroke-miterlimit="10"/>
<path d="M32.58 256.076L39.5062 262.556" stroke="#192244" stroke-width="3" stroke-miterlimit="10"/>
<path d="M39.3576 255.927L32.7286 262.705" stroke="#192244" stroke-width="3" stroke-miterlimit="10"/>
<path d="M76.0695 256.968L74.6129 256.997H74.0184L72.8888 257.027C72.7996 257.027 72.7402 256.938 72.7699 256.878C72.8888 256.403 72.8888 255.868 72.8888 255.392C72.8888 255.124 72.8888 254.827 72.8591 254.53C72.8294 254.233 72.7402 253.935 72.5618 253.727C72.3537 253.49 72.0862 253.281 71.7592 253.311C71.0458 253.341 70.9269 254.084 70.8674 254.679C70.808 255.392 70.7782 256.105 70.5107 256.759C70.3026 257.205 70.0351 257.621 69.5595 257.8C69.2028 257.948 68.9352 258.067 68.5785 258.157C68.519 258.157 68.4893 258.216 68.4893 258.275L68.5785 263.18C68.5785 263.24 68.638 263.299 68.6974 263.299L70.0054 263.269C70.0351 263.269 70.0945 263.299 70.0945 263.329C70.3621 263.686 70.7782 263.894 71.2241 263.894L73.2455 263.834L74.7021 263.805H75.2966C75.8912 263.805 76.3668 263.269 76.3668 262.645C76.3668 262.497 76.3371 262.348 76.2479 262.199C76.2182 262.14 76.2182 262.08 76.2776 262.051C76.4857 261.872 76.6343 261.456 76.6343 261.129V261.01C76.6343 260.862 76.6046 260.713 76.5154 260.564C76.4857 260.505 76.4857 260.446 76.5451 260.416C76.7532 260.237 76.9019 259.94 76.9019 259.643V259.524C76.9019 259.375 76.8721 259.227 76.7829 259.078C76.7532 259.019 76.7532 258.959 76.8127 258.929C77.0208 258.751 77.1694 258.454 77.1694 258.157C77.1694 257.443 76.664 256.938 76.0695 256.968Z" fill="white"/>
<path d="M67.657 263.805L65.7545 263.834C65.5762 263.834 65.4573 263.715 65.4573 263.537L65.3384 257.919C65.3384 257.74 65.4573 257.622 65.6356 257.622L67.5381 257.592C67.7165 257.592 67.8354 257.711 67.8354 257.889L67.9543 263.507C67.9543 263.656 67.8354 263.805 67.657 263.805Z" fill="white"/>
<path d="M105.099 16.9079C106.461 11.1401 102.889 5.36023 97.1212 3.99828C91.3533 2.63633 85.5735 6.20801 84.2116 11.9758C82.8496 17.7437 86.4213 23.5235 92.1891 24.8855C97.957 26.2474 103.737 22.6757 105.099 16.9079Z" fill="#F5B900"/>
<path d="M90.2193 15.5604C89.9517 15.2929 89.5058 15.5901 89.6545 15.9468C90.4571 17.9385 92.3893 19.3356 94.6485 19.3356C96.878 19.3356 98.7804 17.9682 99.6128 16.036C99.7614 15.6793 99.3155 15.382 99.048 15.6496C97.4725 17.1656 94.1431 19.3356 90.2193 15.5604Z" fill="#192244"/>
<path d="M97.413 12.0826C97.7102 12.8555 98.4534 13.3311 99.256 13.3311C100.059 13.3311 100.772 12.8555 101.099 12.1123C101.158 11.9637 101.099 11.8151 100.98 11.7259C100.861 11.6367 100.683 11.6664 100.564 11.7556C99.9694 12.3204 99.0182 12.796 97.9183 11.7259C97.8589 11.6664 97.7697 11.6367 97.6805 11.6367C97.6211 11.6367 97.5616 11.6664 97.5021 11.6962C97.413 11.7854 97.3535 11.9637 97.413 12.0826Z" fill="#192244"/>
<path d="M88.1681 12.0824C88.4654 12.8553 89.2085 13.3309 90.0111 13.3309C90.8137 13.3309 91.5272 12.8553 91.8542 12.1121C91.9136 11.9635 91.8542 11.8148 91.7352 11.7257C91.6163 11.6365 91.438 11.6662 91.3191 11.7554C90.7246 12.3202 89.7733 12.7958 88.6734 11.7257C88.614 11.6662 88.5248 11.6365 88.4356 11.6365C88.3762 11.6365 88.3167 11.6662 88.2573 11.6959C88.1681 11.7851 88.1086 11.9635 88.1681 12.0824Z" fill="#192244"/>
<path d="M86.7413 17.8197C87.7756 17.8197 88.614 16.9813 88.614 15.947C88.614 14.9127 87.7756 14.0742 86.7413 14.0742C85.707 14.0742 84.8685 14.9127 84.8685 15.947C84.8685 16.9813 85.707 17.8197 86.7413 17.8197Z" fill="#FF4141"/>
<path d="M102.526 17.82C103.56 17.82 104.399 16.9815 104.399 15.9472C104.399 14.9129 103.56 14.0745 102.526 14.0745C101.492 14.0745 100.653 14.9129 100.653 15.9472C100.653 16.9815 101.492 17.82 102.526 17.82Z" fill="#FF4141"/>
<path d="M101.872 105.126C101.694 101.41 101.248 99.4186 101.248 99.4186C99.8209 97.9917 96.5213 94.7813 90.6355 91.3331C90.0112 90.9466 90.6652 98.9132 76.6641 106.285L75.6831 110.952C75.6831 110.952 74.7022 105.78 70.7783 106.761C70.7783 106.761 66.1113 108.723 69.7973 114.133C69.7973 114.133 71.7593 116.095 73.7212 117.344L73.4834 124.775C69.4703 122.575 65.0411 119.008 64.3277 114.252C62.5441 102.599 65.2195 87.2308 77.5559 82.3854C84.274 79.7695 94.5891 81.018 100.237 85.7148C105.558 90.144 106.836 99.1213 102.377 104.591L101.872 105.126Z" fill="#192244"/>
<path d="M89.1788 133.307L87.752 126.113L92.0028 126.826C97.6805 127.361 99.0777 124.27 99.0777 124.27C101.753 119.097 102.11 111.963 101.931 106.672" fill="white"/>
<path d="M89.1788 133.307L87.752 126.113L92.0028 126.826C97.6805 127.361 99.0777 124.27 99.0777 124.27C101.753 119.097 102.11 111.963 101.931 106.672" stroke="#231F20" stroke-miterlimit="10"/>
<path d="M87.2466 118.324C87.2169 119.097 87.6925 119.781 88.1979 120.316C88.9708 121.119 89.8923 121.832 90.9327 122.189C91.9731 122.546 93.1919 122.575 94.2026 122.129C95.2133 121.654 96.0159 120.673 96.105 119.573C96.1645 119.632 96.0753 119.781 95.9861 119.722" stroke="#182244" stroke-miterlimit="10"/>
<path d="M94.8268 107.683C94.5593 108.247 94.7971 108.901 95.1241 109.407C95.4511 109.912 95.9267 110.358 96.1942 110.893C96.5509 111.606 96.6104 112.469 96.3131 113.212C96.0159 113.955 95.3916 114.549 94.6187 114.817" stroke="#182244" stroke-miterlimit="10"/>
<path d="M98.5427 106.404C98.4237 106.583 98.721 106.791 98.8994 106.672C99.048 106.523 98.9588 106.226 98.7507 106.167C98.5427 106.107 98.3346 106.196 98.1859 106.375C98.1265 106.464 98.067 106.583 98.0968 106.672C98.1562 106.821 98.394 106.85 98.4832 106.731C98.5724 106.583 98.4238 106.375 98.2751 106.404C98.2751 106.553 98.4832 106.672 98.6021 106.553C98.5724 106.345 98.3346 106.196 98.1562 106.285C97.9779 106.345 97.8887 106.612 97.9779 106.791C98.0968 106.91 98.394 106.791 98.394 106.612C98.2454 106.642 98.2157 106.88 98.3643 106.939C98.394 106.821 98.4237 106.702 98.394 106.583C98.3346 106.464 98.1562 106.434 98.0968 106.523" stroke="#182244" stroke-miterlimit="10"/>
<path d="M87.1277 106.82C86.8899 106.702 86.5629 106.82 86.4738 107.058C86.8602 107.296 87.3953 106.91 87.3358 106.464C86.9494 106.315 86.4738 106.642 86.4738 107.058C86.7116 107.207 87.0683 107.088 87.1575 106.82C86.9791 106.761 86.8007 106.731 86.6224 106.82C86.444 106.91 86.4143 107.177 86.5629 107.266C86.6521 107.237 86.6521 107.088 86.5629 107.058" stroke="#182244" stroke-miterlimit="10"/>
<path d="M85.3145 100.34C87.4547 99.597 87.9601 99.3295 88.9113 99.8646" stroke="#182244" stroke-miterlimit="10"/>
<path d="M96.3726 100.667C97.5914 99.3591 99.6722 98.9727 101.277 99.7456" stroke="#182244" stroke-miterlimit="10"/>
<path d="M69.0839 89.1332C68.8163 87.8847 67.984 86.8443 67.0625 85.9822C63.8521 82.9502 59.3337 81.6125 55.3801 84.0203C53.1209 85.3877 51.4562 87.5875 50.178 89.8764C48.3349 93.176 47.7404 96.5053 50.3563 99.5374C52.348 101.826 55.9151 103.521 55.9746 106.969C58.1149 106.047 60.5822 104.769 60.9092 102.451C60.9983 101.678 60.8497 100.905 60.6119 100.162C59.9876 98.1403 54.1613 88.8954 59.3634 88.8954C62.4846 88.8954 66.4382 89.5197 67.3895 93.0274L69.0839 89.1332Z" fill="#192244"/>
<path d="M73.4834 124.805L71.9376 134.496L73.4834 124.805Z" fill="white"/>
<path d="M73.4834 124.805L71.9376 134.496" stroke="#231F20" stroke-miterlimit="10"/>
<path d="M102.348 91.0952C101.783 89.9061 101.099 88.9549 100.475 88.4198C99.0183 87.2308 98.3345 86.6363 96.4618 86.7552" stroke="white" stroke-miterlimit="10"/>
<path d="M61.3254 200.874C61.3254 198.169 61.2659 195.88 61.2064 194.542C61.2064 194.542 60.3741 174.418 57.342 173.05C54.3099 171.683 38.5848 177.182 36.9201 178.579C36.9201 178.579 43.2815 189.965 48.2458 193.502C53.2101 197.039 53.7452 199.269 54.5775 200.071C55.4098 200.874 50.4455 209.435 47.4135 209.435C44.3814 209.435 20.8679 185.654 17.8358 183.157C14.8037 180.66 13.3174 178.877 16.1414 174.953C18.9654 171.029 38.5848 150.131 44.3814 146.534C50.178 142.938 70.3027 133.841 70.3027 133.841C70.3027 133.841 69.7379 139.073 84.3632 144.335C84.3632 144.335 93.1919 135.774 89.7437 132.058C89.7437 132.058 107.669 139.787 114.298 144.751C120.927 149.715 135.819 161.011 138.851 160.744C141.884 160.476 142.448 158.247 144.083 156.047C145.748 153.847 156.776 130.393 156.776 130.393C156.776 130.393 164.238 135.922 166.437 136.457C166.289 138.241 156.093 172.991 151.128 179.62C146.164 186.249 131.717 180.452 127.08 179.62C122.443 178.787 109.482 172.723 109.482 172.723C109.482 172.723 106.985 201.409 109.214 205.274C111.414 209.138 114.743 219.602 113.614 219.602C112.514 219.602 61.2064 219.602 61.2064 219.602C61.2064 219.602 61.2362 218.442 61.2659 214.637" fill="white"/>
<path d="M61.3253 200.874C61.3253 198.169 61.2659 195.88 61.2064 194.542C61.2064 194.542 60.3741 174.418 57.342 173.05C54.3099 171.683 38.5848 177.182 36.9201 178.579C36.9201 178.579 43.2815 189.965 48.2458 193.502C53.2101 197.039 53.7452 199.269 54.5775 200.071C55.4098 200.874 50.4455 209.435 47.4135 209.435C44.3814 209.435 20.8679 185.654 17.8358 183.157C14.8037 180.66 13.3174 178.877 16.1414 174.953C18.9654 171.029 38.5848 150.131 44.3814 146.534C50.178 142.938 70.3027 133.841 70.3027 133.841C70.3027 133.841 69.7379 139.073 84.3632 144.335C84.3632 144.335 93.1919 135.774 89.7437 132.058C89.7437 132.058 107.669 139.787 114.298 144.751C120.927 149.715 135.819 161.011 138.851 160.744C141.884 160.476 142.448 158.247 144.083 156.047C145.748 153.847 156.776 130.393 156.776 130.393C156.776 130.393 164.238 135.922 166.437 136.457C166.289 138.241 156.093 172.991 151.128 179.62C146.164 186.249 131.717 180.452 127.08 179.62C122.443 178.787 109.482 172.723 109.482 172.723C109.482 172.723 106.985 201.409 109.214 205.274C111.414 209.138 114.743 219.602 113.614 219.602C112.514 219.602 61.2064 219.602 61.2064 219.602C61.2064 219.602 61.2362 218.442 61.2659 214.637" stroke="#231F20" stroke-miterlimit="10"/>
<path d="M171.521 116.065C173.602 111.012 173.512 111.398 174.82 108.633C174.969 108.336 175.118 108.039 175.236 107.712C175.682 106.79 176.128 105.72 175.742 104.769C175.712 104.68 175.653 104.591 175.593 104.531C175.504 104.472 175.415 104.472 175.296 104.472C174.939 104.472 174.553 104.591 174.256 104.799C173.483 105.334 173.096 106.166 172.739 106.998C172.085 108.455 169.202 113.419 168.548 114.876C169.618 113.003 170.778 107.563 171.491 105.215C171.699 104.501 171.937 103.788 171.937 103.045C171.967 102.213 171.967 100.934 170.956 100.934C170.48 100.934 170.034 101.261 169.856 101.707C168.072 106.047 167.686 109.674 166.2 113.954C166.14 114.103 165.932 114.044 165.962 113.895C166.259 110.714 166.378 109.614 166.705 106.018C166.794 105.096 166.854 104.085 166.438 103.253C166.348 103.104 166.259 102.956 166.14 102.837C165.338 101.975 164.446 102.272 164.238 103.431C162.9 110.595 163.138 112.201 161.652 117.462C161.087 115.887 160.552 114.311 159.987 112.736C159.719 111.963 159.422 111.13 158.679 110.685C158.382 110.506 158.025 110.417 157.668 110.447C156.895 110.566 156.658 111.22 156.539 111.844C156.093 114.103 156.866 116.392 157.312 118.651C158.322 123.734 159.898 125.013 157.787 129.739" fill="white"/>
<path d="M171.521 116.065C173.602 111.012 173.512 111.398 174.82 108.633C174.969 108.336 175.118 108.039 175.236 107.712C175.682 106.79 176.128 105.72 175.742 104.769C175.712 104.68 175.653 104.591 175.593 104.531C175.504 104.472 175.415 104.472 175.296 104.472C174.939 104.472 174.553 104.591 174.256 104.799C173.483 105.334 173.096 106.166 172.739 106.998C172.085 108.455 169.202 113.419 168.548 114.876C169.618 113.003 170.778 107.563 171.491 105.215C171.699 104.501 171.937 103.788 171.937 103.045C171.967 102.213 171.967 100.934 170.956 100.934C170.48 100.934 170.034 101.261 169.856 101.707C168.072 106.047 167.686 109.674 166.2 113.954C166.14 114.103 165.932 114.044 165.962 113.895C166.259 110.714 166.378 109.614 166.705 106.018C166.794 105.096 166.854 104.085 166.438 103.253C166.348 103.104 166.259 102.956 166.14 102.837C165.338 101.975 164.446 102.272 164.238 103.431C162.9 110.595 163.138 112.201 161.652 117.462C161.087 115.887 160.552 114.311 159.987 112.736C159.719 111.963 159.422 111.13 158.679 110.685C158.382 110.506 158.025 110.417 157.668 110.447C156.895 110.566 156.658 111.22 156.539 111.844C156.093 114.103 156.866 116.392 157.312 118.651C158.322 123.734 159.898 125.013 157.787 129.739" stroke="#231F20" stroke-miterlimit="10"/>
<path d="M164.862 134.525C169.886 131.909 170.361 130.482 172.502 125.25C173.929 121.832 174.672 117.492 175.95 114.014C176.158 113.449 175.861 112.795 175.266 112.676C174.791 112.587 174.553 112.914 174.345 113.211C172.948 115.203 172.858 115.024 171.818 117.254" fill="white"/>
<path d="M164.862 134.525C169.886 131.909 170.361 130.482 172.502 125.25C173.929 121.832 174.672 117.492 175.95 114.014C176.158 113.449 175.861 112.795 175.266 112.676C174.791 112.587 174.553 112.914 174.345 113.211C172.948 115.203 172.858 115.024 171.818 117.254" stroke="#231F20" stroke-miterlimit="10"/>
<path d="M51.486 208.157C51.3374 208.306 51.486 208.543 51.6346 208.692C52.2589 209.346 52.8831 210 53.6858 210.327C54.3695 210.624 55.1721 210.684 55.8855 210.922C56.7178 211.159 57.461 211.605 58.1744 212.081C59.7202 213.092 61.1768 214.191 62.5739 215.38C63.0495 215.797 63.6143 216.243 64.2088 216.094C64.7439 215.975 65.1006 215.41 65.1304 214.845C65.1304 214.281 64.8926 213.746 64.5656 213.3C64.0899 212.616 63.4657 211.992 62.7523 211.546C63.8224 212.229 64.8926 212.973 65.933 213.686C66.468 214.043 66.9734 214.429 67.5085 214.786C68.0138 215.143 68.8461 215.529 69.4704 215.291C70.0055 215.083 69.9163 214.429 69.7677 213.983" fill="white"/>
<path d="M51.486 208.157C51.3374 208.306 51.486 208.543 51.6346 208.692C52.2589 209.346 52.8831 210 53.6858 210.327C54.3695 210.624 55.1721 210.684 55.8855 210.922C56.7178 211.159 57.461 211.605 58.1744 212.081C59.7202 213.092 61.1768 214.191 62.5739 215.38C63.0495 215.797 63.6143 216.243 64.2088 216.094C64.7439 215.975 65.1006 215.41 65.1304 214.845C65.1304 214.281 64.8926 213.746 64.5656 213.3C64.0899 212.616 63.4657 211.992 62.7523 211.546C63.8224 212.229 64.8926 212.973 65.933 213.686C66.468 214.043 66.9734 214.429 67.5085 214.786C68.0138 215.143 68.8461 215.529 69.4704 215.291C70.0055 215.083 69.9163 214.429 69.7677 213.983" stroke="#231F20" stroke-miterlimit="10"/>
<path d="M67.1815 210C67.9841 210.624 68.8759 211.1 69.6785 211.665C70.392 212.17 71.4026 212.883 71.6405 213.805C71.7296 214.191 71.4918 214.489 71.1946 214.726" fill="white"/>
<path d="M67.1815 210C67.9841 210.624 68.8759 211.1 69.6785 211.665C70.392 212.17 71.4026 212.883 71.6405 213.805C71.7296 214.191 71.4918 214.489 71.1946 214.726" stroke="#231F20" stroke-miterlimit="10"/>
<path d="M53.5966 202.033C56.3908 201.32 59.3932 201.439 62.2172 202.122C65.0412 202.806 67.6571 205.006 70.1541 206.462C70.927 206.908 71.5512 207.354 72.2349 207.949C72.8592 208.484 73.3348 208.9 73.424 209.732C73.5132 210.357 73.6321 210.297 73.1267 210.624C72.8592 210.803 72.443 210.921 72.116 210.862C71.7593 210.803 71.4323 210.594 71.1648 210.357C70.273 209.613 69.4704 208.811 68.4894 208.157" fill="white"/>
<path d="M53.5966 202.033C56.3908 201.32 59.3932 201.439 62.2172 202.122C65.0412 202.806 67.6571 205.006 70.1541 206.462C70.927 206.908 71.5512 207.354 72.2349 207.949C72.8592 208.484 73.3348 208.9 73.424 209.732C73.5132 210.357 73.6321 210.297 73.1267 210.624C72.8592 210.803 72.443 210.921 72.116 210.862C71.7593 210.803 71.4323 210.594 71.1648 210.357C70.273 209.613 69.4704 208.811 68.4894 208.157" stroke="#231F20" stroke-miterlimit="10"/>
<path d="M96.6105 139.549C103.983 143.621 113.376 149.418 120.778 153.46" stroke="#D6D8E5" stroke-miterlimit="10"/>
<path d="M64.2088 210C64.3872 209.762 68.3705 213.567 71.1945 214.727L64.2088 210Z" fill="white"/>
<path d="M64.2088 210C64.3872 209.762 68.3705 213.567 71.1945 214.727" stroke="#231F20" stroke-miterlimit="10"/>
<path d="M71.6404 210.595C71.9079 210.862 72.2943 211.041 72.6213 211.219C73.2456 211.546 74.0482 212.319 73.5428 213.062C73.4239 213.24 73.2158 213.33 73.0078 213.359C72.3538 213.508 71.6404 213.27 71.1945 212.765" stroke="#231F20" stroke-miterlimit="10"/>
<path d="M68.0138 137.587C63.971 139.816 59.8985 141.957 55.7963 144.008" stroke="#D6D8E5" stroke-miterlimit="10"/>
<path d="M133.067 83.1195C139.812 76.3749 139.812 65.4396 133.067 58.6949C126.322 51.9503 115.387 51.9503 108.642 58.6949C101.898 65.4396 101.898 76.3749 108.642 83.1195C115.387 89.8642 126.322 89.8642 133.067 83.1195Z" fill="#F5B900"/>
<path d="M115.754 66.7194C115.754 67.9084 115.189 68.8597 114.476 68.8597C113.762 68.8597 113.198 67.9084 113.198 66.7194C113.198 65.5303 113.762 64.5791 114.476 64.5791C115.189 64.5791 115.754 65.5601 115.754 66.7194Z" fill="#192244"/>
<path d="M128.507 66.7191C128.507 67.9082 127.942 68.8594 127.228 68.8594C126.515 68.8594 125.95 67.9082 125.95 66.7191C125.95 65.5301 126.515 64.5789 127.228 64.5789C127.942 64.5789 128.507 65.5598 128.507 66.7191Z" fill="#192244"/>
<path d="M109.244 72.5457C109.898 78.372 114.862 82.9201 120.867 82.9201C126.872 82.9201 131.806 78.4017 132.49 72.5457H109.244Z" fill="#192244"/>
<path d="M112.841 79.7393C114.922 81.731 117.746 82.92 120.867 82.92C123.84 82.92 126.545 81.8201 128.626 79.9771L128.507 79.7393C120.689 75.9343 112.93 79.6798 112.841 79.7393Z" fill="#FF4141"/>
<path d="M168.132 186.962H118.935L107.074 175.101V186.962H93.7566C90.5759 186.962 87.9897 189.548 87.9897 192.729V219.839C87.9897 223.02 90.5759 225.606 93.7566 225.606H168.132C171.312 225.606 173.899 223.02 173.899 219.839V192.729C173.899 189.548 171.312 186.962 168.132 186.962Z" fill="#F5B900"/>
<path d="M97.9481 196.029H161.562" stroke="white" stroke-width="2" stroke-miterlimit="10"/>
<path d="M97.9481 204.5H161.562" stroke="white" stroke-width="2" stroke-miterlimit="10"/>
<path d="M97.9481 212.973H130.944" stroke="white" stroke-width="2" stroke-miterlimit="10"/>
<path d="M322.471 306.135L225.266 297.663C216.883 296.919 210.462 289.934 210.462 281.521V57.6824C210.462 49.2698 220.658 47.516 229.041 46.8026L322.381 33.4258C331.834 32.6231 340.069 39.9358 340.069 49.4185V289.963C340.069 299.476 331.924 306.937 322.471 306.135Z" fill="#0D1221"/>
<path d="M323.541 305.718L218.458 297.306C213.94 296.949 210.462 293.174 210.462 288.626V51.3508C210.462 46.8324 213.91 43.0869 218.399 42.6707L323.481 33.4853C328.564 33.0394 332.934 37.0524 332.934 42.1654V297.009C332.934 302.122 328.594 306.105 323.541 305.718Z" fill="#192244"/>
<path d="M320.806 300.695L220.955 292.223C217.804 291.955 215.367 289.309 215.367 286.129V53.9072C215.367 50.7264 217.804 48.0808 220.955 47.8133L320.806 39.3413C324.373 39.044 327.435 41.8383 327.435 45.4352V294.601C327.435 298.198 324.373 300.992 320.806 300.695Z" fill="#D6D8E5"/>
<path d="M319.557 211.338H221.163C220.836 211.338 220.569 211.07 220.569 210.743V74.894C220.569 74.567 220.836 74.2995 221.163 74.2995L319.557 68.3542C319.884 68.3542 320.152 68.6218 320.152 68.9488V210.743C320.152 211.07 319.884 211.338 319.557 211.338Z" fill="white"/>
<path d="M220.569 56.0176L229.19 55.1555" stroke="white" stroke-width="4" stroke-miterlimit="10"/>
<path d="M235.135 54.5313L243.755 53.6692" stroke="white" stroke-width="4" stroke-miterlimit="10"/>
<path d="M233.532 89.8232C235.185 80.8457 229.246 72.2287 220.269 70.5766C211.291 68.9244 202.674 74.8627 201.022 83.8401C199.37 92.8175 205.308 101.435 214.286 103.087C223.263 104.739 231.88 98.8006 233.532 89.8232Z" fill="#F5B900"/>
<path d="M210.194 90.0542C210.521 93.5916 213.464 96.3859 217.091 96.4751C220.717 96.5643 223.779 93.8889 224.255 90.3515L210.194 90.0542Z" fill="#192244"/>
<path d="M212.275 94.4536C213.524 95.6724 215.218 96.4453 217.091 96.475C218.874 96.5048 220.539 95.8805 221.817 94.8104L221.758 94.6617C217.061 92.2539 212.335 94.4239 212.275 94.4536Z" fill="#FF2223"/>
<path d="M215.099 81.9687C215.129 80.4229 214.059 78.9961 212.394 78.9664C211.086 78.9366 210.284 79.8581 210.016 80.7499C209.778 79.8581 209.035 78.9069 207.697 78.8772C206.033 78.8475 204.903 80.2149 204.873 81.7309V81.7606C204.844 82.0876 204.784 85.4764 209.838 88.3301C215.01 85.6845 215.099 82.3254 215.099 81.9687Z" fill="#FF2223"/>
<path d="M229.873 82.2959C229.873 82.2959 229.873 82.2661 229.873 82.2959C229.903 80.7501 228.833 79.3232 227.168 79.2935C225.86 79.2638 225.057 80.1853 224.79 81.0771C224.552 80.1853 223.809 79.2341 222.471 79.2043C220.807 79.1746 219.677 80.542 219.647 82.0581V82.0878C219.618 82.4148 219.558 85.8036 224.612 88.6573C229.784 86.0117 229.873 82.6229 229.873 82.2959Z" fill="#FF2223"/>
<path d="M219.216 17.1646C220.737 10.7257 216.749 4.27346 210.311 2.75306C203.872 1.23266 197.419 5.21987 195.899 11.6588C194.379 18.0976 198.366 24.5499 204.805 26.0703C211.244 27.5907 217.696 23.6035 219.216 17.1646Z" fill="#F5B900"/>
<path d="M215.01 12.528C214.951 12.32 214.772 12.1713 214.564 12.1416L210.076 11.4876L208.084 7.41512C207.995 7.23677 207.787 7.08813 207.578 7.08813C207.37 7.08813 207.162 7.20704 207.073 7.41512L205.081 11.4876L200.593 12.1416C200.385 12.1713 200.206 12.32 200.147 12.528C200.087 12.7361 200.147 12.9442 200.296 13.0928L203.536 16.2438L202.763 20.7028C202.733 20.9108 202.822 21.1189 203.001 21.2378C203.179 21.3567 203.387 21.3865 203.595 21.2676L207.608 19.157L211.621 21.2676C211.71 21.2973 211.8 21.327 211.889 21.327C212.008 21.327 212.127 21.2973 212.216 21.2081C212.394 21.0892 212.483 20.8811 212.454 20.673L211.681 16.2141L214.861 13.1226C215.01 12.9739 215.07 12.7361 215.01 12.528Z" fill="white"/>
<path d="M281.386 262.296C281.46 255.434 276.184 249.814 269.601 249.742C263.019 249.671 257.622 255.176 257.548 262.038C257.474 268.9 262.75 274.52 269.333 274.591C275.915 274.662 281.312 269.157 281.386 262.296Z" fill="white"/>
<path d="M269.617 246.979C264.623 246.86 260.135 249.417 257.459 253.4C255.854 255.778 254.873 258.661 254.814 261.812" stroke="white" stroke-width="3" stroke-miterlimit="10"/>
<path d="M280.348 271.919C282.429 269.363 283.707 266.063 283.797 262.437C283.886 258.78 282.697 255.392 280.675 252.716" stroke="white" stroke-width="3" stroke-miterlimit="10"/>
<path d="M260.283 273.881C262.691 275.962 265.783 277.211 269.142 277.3" stroke="white" stroke-width="3" stroke-miterlimit="10"/>
<path d="M313.365 263.044C313.419 258.12 309.629 254.086 304.901 254.035C300.174 253.984 296.298 257.934 296.245 262.859C296.191 267.784 299.981 271.818 304.709 271.869C309.436 271.92 313.312 267.969 313.365 263.044Z" stroke="#192244" stroke-width="3" stroke-miterlimit="10"/>
<path d="M241.908 261.432C241.962 256.507 238.172 252.474 233.445 252.422C228.717 252.371 224.841 256.322 224.788 261.247C224.735 266.172 228.524 270.205 233.252 270.256C237.979 270.308 241.855 266.357 241.908 261.432Z" stroke="#192244" stroke-width="3" stroke-miterlimit="10"/>
<path d="M230.118 264.57L236.448 264.709L236.595 258.082L230.264 257.942L230.118 264.57Z" stroke="#192244" stroke-width="3" stroke-miterlimit="10"/>
<path d="M308.232 259.643L301.305 266.123" stroke="#192244" stroke-width="3" stroke-miterlimit="10"/>
<path d="M301.454 259.494L308.083 266.271" stroke="#192244" stroke-width="3" stroke-miterlimit="10"/>
<path d="M182.163 71.9212C182.163 71.9212 182.163 71.8914 182.163 71.9212C182.163 70.3754 181.063 68.9783 179.398 68.9783C178.09 68.9783 177.317 69.9295 177.05 70.8213C176.782 69.9295 176.039 68.9783 174.701 68.9783C173.037 68.9783 171.937 70.3754 171.937 71.8914V71.9212C171.937 72.2482 171.937 75.637 177.05 78.3718C182.163 75.637 182.163 72.2482 182.163 71.9212Z" fill="#FF2223"/>
<path d="M274.611 260.98C274.611 260.98 274.611 260.951 274.611 260.98C274.611 259.434 273.511 258.037 271.847 258.037C270.539 258.037 269.766 258.989 269.498 259.88C269.231 258.989 268.488 258.037 267.15 258.037C265.485 258.037 264.385 259.434 264.385 260.951V260.98C264.385 261.307 264.385 264.696 269.498 267.431C274.611 264.696 274.611 261.307 274.611 260.98Z" fill="#FF2223"/>
<path d="M204.755 58.2471C204.755 58.2471 204.755 58.2174 204.755 58.2471C204.755 56.7013 203.655 55.3042 201.99 55.3042C200.682 55.3042 199.909 56.2554 199.642 57.1472C199.374 56.2554 198.631 55.3042 197.293 55.3042C195.629 55.3042 194.529 56.7013 194.529 58.2174V58.2471C194.529 58.5741 194.529 61.9629 199.642 64.6977C204.755 61.9629 204.755 58.5741 204.755 58.2471Z" fill="#FF2223"/>
<path d="M189.505 39.787C189.505 39.7573 189.505 39.7573 189.505 39.787C189.505 38.6574 188.702 37.6467 187.484 37.6467C186.532 37.6467 185.968 38.3304 185.759 38.9844C185.581 38.3304 185.016 37.6467 184.035 37.6467C182.817 37.6467 182.014 38.6574 182.014 39.787C182.014 39.787 182.014 39.787 182.014 39.8167C182.014 40.0546 182.014 42.5218 185.73 44.5432C189.505 42.4921 189.505 40.0248 189.505 39.787Z" fill="#FF2223"/>
<path d="M281.092 193.828C281.092 191.302 281.151 189.191 281.21 187.913C281.21 187.913 281.983 169.126 284.807 167.848C287.631 166.569 302.316 171.712 303.862 172.99C303.862 172.99 297.917 183.632 293.309 186.932C288.701 190.232 288.166 192.312 287.394 193.085C286.621 193.858 291.258 201.825 294.082 201.825C296.906 201.825 321.638 180.452 324.462 178.133C327.286 175.814 328.683 174.15 326.067 170.464C323.452 166.778 302.346 146.475 296.936 143.115C291.525 139.756 272.738 131.284 272.738 131.284C272.738 131.284 273.244 136.189 259.599 141.064C259.599 141.064 251.365 133.098 254.576 129.62C254.576 129.62 237.84 136.813 231.657 141.451C225.474 146.088 211.592 156.641 208.738 156.373C205.884 156.106 205.379 154.055 203.833 152.004C202.287 149.953 192.002 128.074 192.002 128.074C192.002 128.074 185.046 133.217 182.995 133.722C183.114 135.387 192.656 167.818 197.293 174.001C201.931 180.184 215.397 174.774 219.737 174.001C224.077 173.228 236.175 167.58 236.175 167.58C236.175 167.58 238.494 194.364 236.443 197.96C234.392 201.557 231.3 211.337 232.311 211.337C233.351 211.337 281.21 211.337 281.21 211.337C281.21 211.337 281.181 210.267 281.151 206.7" fill="#F5B900"/>
<path d="M269.32 114.787L269.914 122.545C291.228 119.899 288.137 96.5941 288.137 96.5941C284.064 72.8428 263.167 75.8154 263.167 75.8154C263.167 75.8154 240.01 78.6989 241.288 100.934C241.288 100.934 241.912 118.027 257.311 121.713L259.094 112.171L269.32 114.787Z" fill="#192244"/>
<path d="M254.576 112.26C255.616 113.152 257.251 113.152 258.292 112.26C258.41 112.141 258.232 111.963 258.113 112.082C257.192 112.854 255.705 112.854 254.754 112.082C254.635 111.933 254.457 112.141 254.576 112.26Z" fill="#192244"/>
<path d="M255.051 132.474C256.33 127.807 257.34 123.051 258.143 118.294C258.173 118.116 257.905 118.057 257.875 118.235C257.073 122.991 256.092 127.747 254.784 132.414C254.754 132.563 254.992 132.622 255.051 132.474Z" fill="#192244"/>
<path d="M268.993 114.638C269.528 118.829 269.974 123.05 270.45 127.242C270.539 128.134 270.658 129.025 270.777 129.917C270.806 130.096 271.074 130.096 271.044 129.917C270.509 125.726 270.063 121.505 269.588 117.313C269.498 116.421 269.379 115.53 269.261 114.638C269.231 114.46 268.963 114.46 268.993 114.638Z" fill="#192244"/>
<path d="M260.105 94.6619C260.105 94.6619 254.784 99.8045 247.114 101.142C247.114 101.142 243.607 117.997 259.689 118.235C259.689 118.235 268.042 119.424 274.165 108.603L274.938 105.898C274.938 105.898 278.654 105.809 277.376 101.499C277.376 101.499 276.038 96.8022 271.46 101.856C271.431 101.826 264.831 102.658 260.105 94.6619Z" fill="white"/>
<path d="M260.016 94.5728C259.332 95.2268 258.559 95.8213 257.786 96.3564C255.913 97.6941 253.892 98.8237 251.752 99.656C250.236 100.251 248.69 100.696 247.085 100.994C247.055 100.994 246.996 101.053 246.996 101.083C246.698 102.539 246.639 104.085 246.669 105.601C246.758 108.514 247.471 111.487 249.225 113.835C250.265 115.203 251.633 116.303 253.179 117.016C254.1 117.462 255.111 117.759 256.092 117.967C257.251 118.205 258.41 118.265 259.6 118.324C261.799 118.443 263.91 117.967 265.901 117.016C268.042 115.976 269.915 114.43 271.46 112.617C272.471 111.428 273.363 110.149 274.136 108.782C274.284 108.514 274.344 108.247 274.433 107.979C274.552 107.533 274.7 107.088 274.819 106.642C274.879 106.374 274.968 106.136 275.027 105.869C274.998 105.899 274.938 105.928 274.909 105.958C276.157 105.928 277.346 105.126 277.643 103.907C277.97 102.599 277.554 100.786 276.514 99.8641C275.89 99.329 275.117 99.2101 274.344 99.4479C273.72 99.656 273.155 100.013 272.649 100.429C272.293 100.726 271.936 101.053 271.609 101.41C271.52 101.499 271.46 101.648 271.371 101.677C271.252 101.707 271.074 101.707 270.955 101.707C270.687 101.707 270.42 101.707 270.152 101.677C269.32 101.618 268.458 101.41 267.655 101.142C264.385 100.042 261.888 97.486 260.164 94.5728C260.075 94.4242 259.837 94.5728 259.927 94.7214C262.215 98.5858 266.11 101.975 270.836 101.975C270.985 101.975 271.133 101.975 271.282 101.945C271.609 101.915 271.817 101.529 272.055 101.291C272.887 100.488 274.076 99.4182 275.354 99.5965C276.662 99.7749 277.227 101.261 277.376 102.391C277.554 103.52 277.287 104.68 276.246 105.304C275.83 105.542 275.325 105.69 274.849 105.72C274.79 105.72 274.73 105.75 274.73 105.809C274.492 106.642 274.255 107.504 273.987 108.336C273.928 108.574 273.809 108.752 273.69 108.96C273.422 109.406 273.155 109.822 272.887 110.268C272.352 111.071 271.787 111.814 271.163 112.557C269.35 114.638 267.091 116.392 264.504 117.343C263.107 117.848 261.621 118.175 260.135 118.116C258.41 118.057 256.538 117.908 254.784 117.373C252.673 116.719 250.771 115.5 249.433 113.746C248.304 112.26 247.62 110.506 247.233 108.693C246.728 106.285 246.698 103.728 247.144 101.291C247.144 101.261 247.144 101.172 247.174 101.142C247.085 101.231 247.531 101.142 247.56 101.142C247.798 101.083 248.036 101.053 248.274 100.994C248.749 100.875 249.195 100.756 249.671 100.637C251.336 100.132 252.941 99.4776 254.487 98.6453C256.419 97.6346 258.262 96.4158 259.897 94.9592C259.986 94.8998 260.045 94.8106 260.135 94.7512C260.313 94.6322 260.135 94.4539 260.016 94.5728Z" fill="#192244"/>
<path d="M250.236 101.885C250.057 102.539 249.849 103.193 249.671 103.847C249.611 104.026 249.879 104.085 249.938 103.907C250.117 103.253 250.325 102.599 250.503 101.945C250.533 101.796 250.295 101.737 250.236 101.885Z" fill="#192244"/>
<path d="M253.535 103.223C253.089 104.323 252.554 105.661 253.03 106.85C253.387 107.712 254.249 108.425 255.23 108.247C255.408 108.217 255.319 107.95 255.17 107.979C254.249 108.158 253.446 107.355 253.208 106.523C252.911 105.453 253.387 104.293 253.803 103.312C253.862 103.134 253.625 103.075 253.535 103.223Z" fill="#192244"/>
<path d="M259.243 100.488C259.035 101.231 259.064 102.004 259.243 102.718C259.302 102.896 259.54 102.807 259.51 102.658C259.332 101.975 259.302 101.261 259.51 100.577C259.57 100.399 259.302 100.34 259.243 100.488Z" fill="#192244"/>
<path d="M273.244 104.442C272.917 103.728 272.471 102.837 272.798 102.064C273.006 101.529 273.66 101.023 274.255 101.321C274.403 101.41 274.552 101.172 274.403 101.083C273.719 100.726 272.947 101.202 272.62 101.856C272.174 102.747 272.649 103.788 273.036 104.59C273.095 104.739 273.333 104.59 273.244 104.442Z" fill="#192244"/>
<path d="M255.378 112.379C256.627 113.092 258.202 113.122 259.451 112.438C259.6 112.349 259.481 112.111 259.302 112.2C258.113 112.825 256.657 112.825 255.497 112.141C255.378 112.052 255.23 112.29 255.378 112.379Z" fill="#192244"/>
<path d="M184.451 131.879C179.755 129.441 179.339 128.104 177.317 123.229C176.098 120.256 174.909 117.283 173.809 114.281C173.512 113.478 173.72 112.081 174.553 112.349C174.79 112.438 174.939 112.646 175.058 112.824C176.366 114.697 177.674 116.54 178.982 118.413C179.755 114.43 176.069 110.863 175.95 106.82C175.89 104.739 176.782 102.777 177.674 100.875C178.387 100.607 178.982 101.499 179.249 102.212C180.855 106.374 182.43 110.536 184.035 114.668C183.708 110.981 183.381 107.295 183.084 103.609C182.995 102.747 182.935 101.826 183.322 101.023C183.708 100.25 184.749 99.7152 185.492 100.191C185.373 105.512 186.057 110.833 187.484 115.946C187.989 114.489 188.524 113.003 189.029 111.546C189.237 110.922 189.475 110.298 189.951 109.852C190.426 109.406 191.229 109.228 191.734 109.644C192.061 109.911 192.18 110.298 192.269 110.714C192.686 112.824 191.972 114.965 191.556 117.075C190.605 121.832 189.119 123.021 191.11 127.42" fill="white"/>
<path d="M184.451 131.879C179.755 129.441 179.339 128.104 177.317 123.229C176.098 120.256 174.909 117.283 173.809 114.281C173.512 113.478 173.72 112.081 174.553 112.349C174.79 112.438 174.939 112.646 175.058 112.824C176.366 114.697 177.674 116.54 178.982 118.413C179.755 114.43 176.069 110.863 175.95 106.82C175.89 104.739 176.782 102.777 177.674 100.875C178.387 100.607 178.982 101.499 179.249 102.212C180.855 106.374 182.43 110.536 184.035 114.668C183.708 110.981 183.381 107.295 183.084 103.609C182.995 102.747 182.935 101.826 183.322 101.023C183.708 100.25 184.749 99.7152 185.492 100.191C185.373 105.512 186.057 110.833 187.484 115.946C187.989 114.489 188.524 113.003 189.029 111.546C189.237 110.922 189.475 110.298 189.951 109.852C190.426 109.406 191.229 109.228 191.734 109.644C192.061 109.911 192.18 110.298 192.269 110.714C192.686 112.824 191.972 114.965 191.556 117.075C190.605 121.832 189.119 123.021 191.11 127.42" stroke="#231F20" stroke-miterlimit="10"/>
<path d="M262.215 81.3148C260.491 81.2256 251.365 69.989 259.391 67.8785C267.418 65.7679 288.404 68.5325 274.314 81.3148C260.224 94.097 262.215 81.3148 262.215 81.3148Z" fill="#192244"/>
<path d="M177.169 101.915C177.733 102.955 179.814 109.852 179.814 109.852L177.169 101.915Z" fill="white"/>
<path d="M177.169 101.915C177.733 102.955 179.814 109.852 179.814 109.852" stroke="#231F20" stroke-miterlimit="10"/>
<path d="M288.285 194.869C285.669 194.215 282.875 194.304 280.259 194.958C277.643 195.582 275.146 196.712 272.798 198.08C272.084 198.496 271.371 198.942 270.717 199.506C270.123 200.012 269.587 200.666 269.498 201.439C269.379 202.301 270.063 203.311 271.014 203.133C271.341 203.074 271.639 202.895 271.906 202.657C272.738 201.974 273.511 201.201 274.403 200.606C275.325 199.982 276.306 199.447 277.316 199.031C276.157 200.339 274.968 201.647 273.601 202.717C272.501 203.579 271.49 204.708 271.401 206.135C271.401 206.254 271.401 206.403 271.46 206.492C271.549 206.641 271.698 206.7 271.847 206.76C272.382 206.938 272.947 207.116 273.541 207.146C274.433 207.205 274.998 206.76 275.711 206.343C276.157 206.076 276.603 205.838 277.049 205.571C277.941 205.035 278.832 204.441 279.694 203.817C279.04 204.233 278.446 204.798 278 205.452C277.703 205.868 277.465 206.373 277.465 206.908C277.465 207.414 277.822 207.978 278.327 208.068C278.892 208.186 279.427 207.77 279.843 207.384C281.151 206.254 282.518 205.214 283.945 204.292C284.629 203.846 285.313 203.43 286.086 203.192C286.769 202.984 287.483 202.925 288.137 202.657C288.91 202.33 289.474 201.706 290.069 201.112C290.218 200.963 290.336 200.725 290.188 200.606" fill="white"/>
<path d="M288.285 194.869C285.669 194.215 282.875 194.304 280.259 194.958C277.643 195.582 275.146 196.712 272.798 198.08C272.084 198.496 271.371 198.942 270.717 199.506C270.123 200.012 269.587 200.666 269.498 201.439C269.379 202.301 270.063 203.311 271.014 203.133C271.341 203.074 271.639 202.895 271.906 202.657C272.738 201.974 273.511 201.201 274.403 200.606C275.325 199.982 276.306 199.447 277.316 199.031C276.157 200.339 274.968 201.647 273.601 202.717C272.501 203.579 271.49 204.708 271.401 206.135C271.401 206.254 271.401 206.403 271.46 206.492C271.549 206.641 271.698 206.7 271.847 206.76C272.382 206.938 272.947 207.116 273.541 207.146C274.433 207.205 274.998 206.76 275.711 206.343C276.157 206.076 276.603 205.838 277.049 205.571C277.941 205.035 278.832 204.441 279.694 203.817C279.04 204.233 278.446 204.798 278 205.452C277.703 205.868 277.465 206.373 277.465 206.908C277.465 207.414 277.822 207.978 278.327 208.068C278.892 208.186 279.427 207.77 279.843 207.384C281.151 206.254 282.518 205.214 283.945 204.292C284.629 203.846 285.313 203.43 286.086 203.192C286.769 202.984 287.483 202.925 288.137 202.657C288.91 202.33 289.474 201.706 290.069 201.112C290.218 200.963 290.336 200.725 290.188 200.606" stroke="#231F20" stroke-miterlimit="10"/>
<path d="M246.312 93.2051C248.214 88.7758 251.93 85.1492 256.389 83.3359" stroke="white" stroke-miterlimit="10"/>
<path d="M262.275 77.3907C260.462 75.6666 258.5 72.9912 259.956 70.9401C260.61 70.7023 261.353 70.9104 261.829 71.386" stroke="white" stroke-miterlimit="10"/>
<path d="M246.342 135.357C239.445 139.132 232.489 145.791 225.622 149.566" stroke="white" stroke-miterlimit="10"/>
<path d="M240.099 204.798H239.296V196.474L230.884 204.798H186.77C183.441 204.798 180.736 207.503 180.736 210.832V239.756C180.736 243.085 183.441 245.79 186.77 245.79H240.069C243.399 245.79 246.104 243.085 246.104 239.756V210.832C246.134 207.503 243.428 204.798 240.099 204.798Z" fill="white" stroke="#231F20" stroke-miterlimit="10"/>
<path d="M195.004 214.607H229.19" stroke="#192244" stroke-width="2" stroke-miterlimit="10"/>
<path d="M195.153 224.714H229.338" stroke="#192244" stroke-width="2" stroke-miterlimit="10"/>
<path d="M195.302 234.821H229.487" stroke="#192244" stroke-width="2" stroke-miterlimit="10"/>
<path d="M159.66 102.48C156.33 100.964 153.388 98.6452 151.158 95.7617" stroke="#231F20" stroke-miterlimit="10"/>
<path d="M166.467 98.1397C164.535 96.6831 162.93 94.7806 161.859 92.6106" stroke="#231F20" stroke-miterlimit="10"/>
<path d="M171.55 95.0484C171.491 93.2945 171.402 91.5109 171.342 89.7571" stroke="#231F20" stroke-miterlimit="10"/>
<path d="M178.387 94.8104C179.517 93.6511 180.557 92.4026 181.509 91.0649" stroke="#231F20" stroke-miterlimit="10"/>
<path d="M189.416 101.231C191.11 100.577 192.805 99.9235 194.499 99.2695" stroke="#231F20" stroke-miterlimit="10"/>
<path d="M154.963 109.703C153.417 109.971 151.872 110.209 150.326 110.476C149.88 110.536 149.256 110.476 149.256 110.03" stroke="#231F20" stroke-miterlimit="10"/>
</svg>
