<svg width="282" height="530" viewBox="0 0 282 530" fill="none" xmlns="http://www.w3.org/2000/svg">
<path opacity="0.1" fill-rule="evenodd" clip-rule="evenodd" d="M-40.8681 460.831C-78.5264 448.883 -102.742 415.21 -127.923 384.814C-156.928 349.803 -201.055 316.786 -197.655 271.575C-194.256 226.367 -147.094 198.909 -111.801 170.408C-82.9007 147.07 -48.4189 136.723 -13.8085 123.11C27.0415 107.043 65.259 75.8427 108.515 83.7533C154.758 92.2101 200.444 122.599 219.015 165.688C237.007 207.434 208.686 252.558 200.505 297.187C193.555 335.098 200.026 377.867 174.779 407.003C149.701 435.944 107.365 438.355 70.1262 447.65C33.0877 456.895 -4.43054 472.392 -40.8681 460.831Z" fill="#89ADF5"/>
</svg>
