<svg width="103" height="203" viewBox="0 0 103 203" fill="none" xmlns="http://www.w3.org/2000/svg">
<rect x="102.513" y="84.7666" width="172.956" height="115.836" rx="57.9179" transform="rotate(137.036 102.513 84.7666)" fill="#EAEFFB"/>
</svg>
