<svg width="59" height="58" viewBox="0 0 59 58" fill="none" xmlns="http://www.w3.org/2000/svg">
<rect x="58.2441" y="25.4548" width="47.1957" height="34.7849" rx="17.3924" transform="rotate(137.036 58.2441 25.4548)" fill="#EAEFFB"/>
</svg>
