<svg width="477" height="308" viewBox="0 0 477 308" fill="none" xmlns="http://www.w3.org/2000/svg">
<path d="M429.931 87.3408C435.935 87.3408 440.39 92.7643 439.422 98.5751L407.075 284.619C406.3 289.267 402.233 292.56 397.584 292.56H142.101C139.099 292.56 136.484 291.204 134.741 289.17" stroke="black" stroke-miterlimit="10"/>
<path opacity="0.5" d="M394.679 289.267H139.196C133.191 289.267 128.736 283.844 129.705 278.033L162.051 91.9896C162.826 87.3409 166.894 84.0481 171.543 84.0481H427.026C433.03 84.0481 437.485 89.4715 436.517 95.2824L404.17 281.326C403.395 285.975 399.424 289.267 394.679 289.267Z" fill="url(#paint0_linear)"/>
<path d="M66.7537 96.3476C66.7537 96.3476 69.0781 97.2192 69.9497 97.8003C69.9497 97.8003 74.5015 91.699 81.4745 92.5706C81.4745 92.5706 86.5106 93.6359 90.0939 96.0571C90.0939 96.0571 100.941 93.4422 103.653 106.129C103.653 106.129 104.524 118.235 92.4183 118.816C92.4183 118.816 89.6097 119.107 86.898 117.073C86.898 117.073 86.22 121.237 82.0556 120.463C82.0556 120.463 78.2786 120.656 75.2763 117.751C75.2763 117.751 74.8889 125.789 69.8529 126.37C69.8529 126.37 67.5285 127.532 63.4609 127.048C63.4609 127.048 59.4902 124.24 57.3596 128.307C57.3596 128.307 55.2289 132.956 59.6839 135.474C59.6839 135.474 61.6208 141.091 63.9452 141.769C63.9452 141.769 55.2289 140.316 54.7447 132.859C54.7447 132.859 48.7402 124.53 50.3866 120.463C50.2897 120.463 42.9293 96.2508 66.7537 96.3476Z" fill="#192244"/>
<path d="M72.0803 147.967C75.6637 149.033 79.3439 149.517 83.0241 149.42C86.0264 149.323 89.3192 149.129 91.8372 147.193C96.6796 143.512 97.2606 136.346 96.6796 130.825C96.4859 128.888 96.0985 127.048 95.5174 125.305C94.8395 123.174 94.1615 121.141 94.1615 118.913C94.1615 118.332 93.2899 118.332 93.2899 118.913C93.3867 122.981 95.4205 126.758 95.8079 130.825C96.1953 134.602 96.0016 138.573 94.5489 142.156C93.871 143.803 92.9025 145.256 91.4498 146.418C89.7066 147.774 87.5759 148.355 85.3484 148.452C80.8934 148.839 76.5353 148.355 72.274 147.096C71.693 146.902 71.4993 147.774 72.0803 147.967Z" fill="#192244"/>
<path d="M63.461 142.156C63.9452 142.447 64.4295 142.737 65.0105 143.028C64.9137 142.931 64.9137 142.737 64.8168 142.64C64.2358 149.032 63.3641 155.424 62.2988 161.816C62.202 162.397 63.0736 162.591 63.1704 162.01C64.3326 155.618 65.2042 149.129 65.7853 142.64C65.7853 142.447 65.6885 142.35 65.5916 142.253C65.1074 141.963 64.6232 141.672 64.0421 141.381C63.461 141.091 62.9767 141.866 63.461 142.156Z" fill="#192244"/>
<path d="M84.8642 148.742C85.3484 153.681 85.7358 158.62 85.9295 163.656C85.9295 164.237 86.8011 164.237 86.8011 163.656C86.6074 158.717 86.2201 153.778 85.7358 148.742C85.7358 148.161 84.8642 148.161 84.8642 148.742Z" fill="#192244"/>
<path d="M80.6029 125.983C80.4092 126.08 80.3124 126.177 80.2155 126.273C80.1187 126.37 79.925 126.564 79.925 126.758C79.8281 127.145 79.925 127.532 80.2155 127.726C80.4092 127.823 80.6029 127.92 80.7966 127.92C81.0871 127.92 81.2808 127.823 81.3777 127.629C81.4745 127.532 81.4745 127.339 81.4745 127.145C81.4745 126.951 81.3777 126.758 81.2808 126.661C81.184 126.564 81.0871 126.467 80.9903 126.37C80.8934 126.273 80.7966 126.273 80.6997 126.273C80.5061 126.177 80.3124 126.177 80.1187 126.177C79.925 126.177 79.6344 126.37 79.7313 126.564C79.7313 126.854 79.925 126.951 80.1187 127.048C80.2155 127.048 80.2155 127.048 80.3124 127.048H80.2155C80.3124 127.048 80.4092 127.048 80.506 127.145H80.4092C80.506 127.145 80.506 127.242 80.6029 127.242C80.6029 127.242 80.506 127.242 80.506 127.145L80.6029 127.242C80.6029 127.242 80.6029 127.145 80.506 127.145C80.506 127.145 80.506 127.242 80.6029 127.242V127.145V127.242V127.145V127.242V127.145V127.242V127.145V127.242C80.6029 127.242 80.6029 127.145 80.6997 127.145C80.6997 127.145 80.6997 127.145 80.6029 127.242C80.6029 127.242 80.6997 127.242 80.6997 127.145C80.6997 127.145 80.6997 127.145 80.6029 127.145H80.6997H80.6029H80.6997H80.6029H80.6997H80.6029H80.6997C80.6997 127.145 80.6029 127.145 80.6029 127.048C80.6029 127.048 80.6997 127.048 80.6997 127.145L80.6029 127.048C80.6029 127.048 80.6029 127.145 80.6997 127.145L80.6029 127.048V127.145V127.048V127.145V127.048V127.145C80.6029 127.048 80.6029 127.048 80.6029 126.951V127.048C80.6029 126.951 80.6997 126.951 80.6997 126.854C80.6997 126.854 80.6997 126.951 80.6029 126.951C80.6029 126.854 80.6997 126.854 80.7966 126.758C80.7966 126.758 80.6997 126.758 80.6997 126.854C80.7966 126.758 80.8934 126.758 80.9903 126.661C81.0871 126.661 81.184 126.467 81.184 126.37C81.184 126.273 81.184 126.08 81.184 126.08C81.0871 125.983 80.9903 125.886 80.8934 125.886H80.7966C80.7966 125.886 80.6997 125.886 80.6029 125.983Z" fill="#192244"/>
<path d="M91.5467 125.983C91.353 125.983 91.2561 125.983 91.1593 125.983C91.0625 125.983 90.9656 126.08 90.8688 126.08C90.6751 126.177 90.4814 126.37 90.3845 126.564C90.1908 126.951 90.2877 127.532 90.5782 127.823C90.7719 128.017 90.9656 128.114 91.2561 128.114C91.5467 128.114 91.7404 128.017 91.9341 127.823C92.3215 127.532 92.4183 126.951 92.1278 126.564C91.9341 126.37 91.7404 126.177 91.5467 126.177C91.2561 126.08 91.0624 126.177 90.7719 126.273C90.6751 126.37 90.5782 126.467 90.5782 126.564C90.5782 126.661 90.5782 126.855 90.5782 126.855C90.6751 127.048 90.9656 127.145 91.1593 127.048H91.2561H91.1593H91.2561H91.1593C91.2561 127.048 91.2561 127.048 91.353 127.048H91.2561C91.353 127.048 91.353 127.048 91.353 127.048H91.2561C91.353 127.048 91.353 127.145 91.353 127.145C91.353 127.145 91.2561 127.145 91.2561 127.048L91.353 127.145C91.353 127.145 91.353 127.048 91.2561 127.048L91.353 127.145V127.048V127.145V127.048V127.145V127.048C91.353 127.145 91.353 127.145 91.353 127.242V127.145C91.353 127.145 91.353 127.242 91.2561 127.242C91.2561 127.242 91.2561 127.145 91.353 127.145L91.2561 127.242C91.2561 127.242 91.353 127.242 91.353 127.145L91.2561 127.242H91.353H91.2561H91.353H91.2561H91.353H91.2561H91.353C91.2561 127.242 91.2561 127.145 91.1593 127.145C91.1593 127.145 91.2561 127.145 91.2561 127.242L91.1593 127.145C91.1593 127.145 91.1593 127.242 91.2561 127.242C91.2561 127.242 91.1593 127.145 91.1593 127.048V127.145C91.1593 127.048 91.1593 127.048 91.1593 126.951V127.048C91.1593 126.951 91.1593 126.951 91.1593 126.855V126.951C91.1593 126.855 91.1593 126.855 91.1593 126.758V126.855C91.1593 126.855 91.1593 126.758 91.2561 126.758C91.2561 126.758 91.2561 126.855 91.1593 126.855C91.1593 126.758 91.2561 126.758 91.2561 126.758C91.2561 126.758 91.1593 126.758 91.1593 126.855C91.2561 126.855 91.2561 126.758 91.353 126.758H91.2561C91.353 126.758 91.353 126.758 91.4498 126.661H91.353C91.4498 126.661 91.4498 126.661 91.5467 126.661H91.4498C91.5467 126.661 91.6435 126.661 91.7404 126.661C91.8372 126.564 91.9341 126.467 91.9341 126.37C91.9341 126.273 91.9341 126.177 91.9341 126.08C91.7404 126.177 91.6435 126.08 91.5467 125.983Z" fill="#192244"/>
<path d="M86.8012 130.438C86.8012 131.31 86.8012 132.084 86.8012 132.956C86.8012 133.15 86.8012 133.343 86.8012 133.44C86.8012 133.537 86.8012 133.634 86.7043 133.634C86.6075 133.634 86.5106 133.634 86.4138 133.634C86.2201 133.634 86.0264 133.537 85.9295 133.44C85.7358 133.343 85.4453 133.343 85.3484 133.634C85.2516 133.828 85.2516 134.118 85.5421 134.215C86.0264 134.409 86.4138 134.602 86.898 134.506C87.3822 134.409 87.6728 134.021 87.7696 133.44C87.7696 132.956 87.7696 132.472 87.7696 131.988C87.7696 131.503 87.7696 130.922 87.7696 130.438C87.6728 129.857 86.8012 129.857 86.8012 130.438Z" fill="#192244"/>
<path d="M82.2494 139.348C82.3462 139.929 82.9273 140.22 83.4115 140.413C83.9926 140.607 84.6705 140.801 85.2516 140.898C86.3169 141.091 87.4791 140.994 88.157 140.026C88.2539 139.832 88.157 139.542 87.9633 139.445C87.7697 139.348 87.4791 139.445 87.3823 139.639C86.898 140.22 86.0264 140.123 85.3485 140.026C84.8642 139.929 84.38 139.832 83.8958 139.639C83.6052 139.542 83.121 139.445 83.0241 139.058C83.0241 138.864 82.7336 138.67 82.4431 138.767C82.2494 138.961 82.1525 139.154 82.2494 139.348Z" fill="#192244"/>
<path d="M61.0398 129.469C61.7177 130.632 61.524 132.181 60.6524 133.15C60.265 133.537 60.8461 134.215 61.2335 133.731C62.3957 132.472 62.6862 130.438 61.8146 128.985C61.4272 128.501 60.7493 128.985 61.0398 129.469Z" fill="#192244"/>
<path d="M151.301 221.668C160.599 218.181 171.736 212.661 181.034 209.175C186.651 207.044 192.268 204.913 197.207 201.524C203.405 197.359 209.7 190.967 217.061 192.517C214.736 193.582 212.703 195.326 211.347 197.456C214.446 199.103 218.223 197.262 221.031 195.035C223.84 192.808 226.939 190.386 230.426 190.871C228.876 194.357 226.842 197.747 224.421 200.652C223.453 201.814 222.29 202.976 220.838 203.461C218.804 204.139 216.673 203.364 214.64 203.073C206.601 202.008 199.434 207.819 193.236 213.145C183.455 221.571 173.189 229.609 162.633 237.067C158.565 239.972 153.238 242.878 148.783 240.553" fill="white"/>
<path d="M151.301 221.668C160.599 218.181 171.736 212.661 181.034 209.175C186.651 207.044 192.268 204.913 197.207 201.524C203.405 197.359 209.7 190.967 217.061 192.517C214.736 193.582 212.703 195.326 211.347 197.456C214.446 199.103 218.223 197.262 221.031 195.035C223.84 192.808 226.939 190.386 230.426 190.871C228.876 194.357 226.842 197.747 224.421 200.652C223.453 201.814 222.29 202.976 220.838 203.461C218.804 204.139 216.673 203.364 214.64 203.073C206.601 202.008 199.434 207.819 193.236 213.145C183.455 221.571 173.189 229.609 162.633 237.067C158.565 239.972 153.238 242.878 148.783 240.553" stroke="black" stroke-miterlimit="10"/>
<path d="M1.76927 251.981C0.703949 250.626 0.994491 248.204 1.18819 246.655C1.47873 243.749 2.25351 240.844 3.02828 238.035C5.64316 229.029 9.4202 220.409 12.5193 211.596C15.6184 202.88 18.427 193.97 22.204 185.544C23.2694 183.22 24.3347 180.992 25.4968 178.765C26.3685 177.118 27.2401 175.472 28.4023 174.019C35.1816 165.303 52.1298 161.913 61.3303 161.429" stroke="black" stroke-miterlimit="10"/>
<path d="M32.7604 232.224C32.7604 225.929 32.373 212.274 32.373 212.758C32.373 218.569 23.6567 233.096 23.6567 233.096" stroke="black" stroke-miterlimit="10"/>
<path d="M36.1501 289.268C36.1501 289.268 33.2447 271.835 32.6636 249.657L36.1501 289.268Z" fill="white"/>
<path d="M36.1501 289.268C36.1501 289.268 33.2447 271.835 32.6636 249.657" stroke="black" stroke-miterlimit="10"/>
<path d="M86.8011 161.719C86.8011 161.719 106.945 165.4 115.662 172.179C115.662 172.179 138.033 206.657 141.81 210.918C145.587 215.179 151.495 222.54 151.495 222.54C151.495 222.54 150.527 224.477 146.653 230.287C142.779 236.098 149.558 240.941 149.558 240.941C138.905 240.941 114.209 212.758 114.209 212.758C110.819 227.188 110.335 289.364 110.335 289.364" fill="white"/>
<path d="M86.8011 161.719C86.8011 161.719 106.945 165.4 115.662 172.179C115.662 172.179 138.033 206.657 141.81 210.918C145.587 215.179 151.495 222.54 151.495 222.54C151.495 222.54 150.527 224.477 146.653 230.287C142.779 236.098 149.558 240.941 149.558 240.941C138.905 240.941 114.209 212.758 114.209 212.758C110.819 227.188 110.335 289.364 110.335 289.364" stroke="black" stroke-miterlimit="10"/>
<path d="M36.3438 206.656C41.9609 196.778 49.0307 186.9 49.3213 175.472" stroke="black" stroke-miterlimit="10"/>
<path d="M114.015 210.24C114.403 209.078 114.5 207.819 114.596 206.657C114.887 199.78 115.177 200.555 115.371 193.679C115.371 193.388 115.177 193.001 114.887 193.098" stroke="black" stroke-miterlimit="10"/>
<path d="M62.2988 163.656L76.2448 174.6L84.6705 164.431" stroke="black" stroke-miterlimit="10"/>
<path d="M118.954 61.1921H165.829L171.543 24.6807H118.954V61.1921Z" fill="url(#paint1_linear)"/>
<path d="M332.018 106.71H382.379L388.19 43.7598H343.64L332.018 106.71Z" fill="url(#paint2_linear)"/>
<path d="M198.757 25.5523L198.95 23.7122H192.171H185.392" fill="#3B92CF"/>
<path d="M199.144 25.5524C199.241 24.9713 199.241 24.3902 199.338 23.7123C199.338 23.5186 199.144 23.228 198.95 23.228C195.367 23.228 191.784 23.228 188.2 23.228C187.232 23.228 186.36 23.228 185.392 23.228C184.811 23.228 184.811 24.0997 185.392 24.0997C188.975 24.0997 192.558 24.0997 196.142 24.0997C197.11 24.0997 198.079 24.0997 198.95 24.0997C198.757 24.0028 198.66 23.8091 198.466 23.7123C198.369 24.2933 198.369 24.8744 198.272 25.5524C198.272 26.0366 199.144 26.0366 199.144 25.5524Z" fill="#323F5A"/>
<path d="M207.473 23.228L209.313 23.7123C210.572 23.7123 211.734 24.1965 212.412 25.0681C213.187 25.9398 213.574 27.1019 213.38 28.3609L213.284 29.1357H169.606L169.702 28.3609C169.896 27.1019 170.477 25.9398 171.446 25.0681C172.414 24.1965 173.576 23.7123 174.932 23.7123H180.356L207.473 23.228Z" fill="#3F4FD3"/>
<path d="M179.775 34.9466C179.678 35.6245 179.193 36.2056 178.612 36.3993C178.322 36.4961 177.934 36.4961 177.644 36.3993C177.353 36.3024 177.16 36.1087 176.966 35.915C176.579 35.4308 176.675 34.656 177.063 34.1718C177.256 33.8812 177.547 33.6876 177.838 33.5907C178.128 33.4939 178.419 33.397 178.709 33.4939C179 33.5907 179.29 33.6876 179.484 33.9781C179.775 34.2686 179.871 34.5592 179.775 34.9466C179.775 35.1403 179.968 35.334 180.162 35.334C180.452 35.334 180.549 35.1403 180.549 34.9466C180.646 33.9781 180.065 33.0096 179.193 32.7191C178.225 32.3317 177.16 32.7191 176.482 33.397C175.804 34.1718 175.513 35.2371 175.997 36.2056C176.385 37.0772 177.45 37.4646 178.419 37.3677C179.581 37.1741 180.452 36.1087 180.549 35.0434C180.549 34.8497 180.356 34.5592 180.162 34.5592C179.968 34.5592 179.871 34.7529 179.775 34.9466Z" fill="#323F5A"/>
<path d="M188.2 34.9466C188.103 35.6245 187.619 36.2056 187.038 36.3993C186.748 36.4961 186.36 36.4961 186.07 36.3993C185.779 36.3024 185.585 36.1087 185.392 35.915C185.004 35.4308 185.101 34.656 185.489 34.1718C185.682 33.8812 185.973 33.6876 186.263 33.5907C186.554 33.4939 186.844 33.397 187.135 33.4939C187.425 33.5907 187.716 33.6876 187.91 33.9781C188.2 34.2686 188.2 34.5592 188.2 34.9466C188.2 35.1403 188.394 35.334 188.588 35.334C188.878 35.334 188.975 35.1403 188.975 34.9466C189.072 33.9781 188.491 33.0096 187.619 32.7191C186.651 32.3317 185.585 32.7191 184.907 33.397C184.23 34.1718 183.939 35.2371 184.423 36.2056C184.811 37.0772 185.876 37.4646 186.844 37.3677C188.007 37.1741 188.878 36.1087 188.975 35.0434C188.975 34.8497 188.781 34.5592 188.588 34.5592C188.297 34.5592 188.2 34.7529 188.2 34.9466Z" fill="#323F5A"/>
<path d="M196.529 34.9466C196.432 35.6245 195.948 36.2056 195.367 36.3993C195.076 36.4961 194.689 36.4961 194.398 36.3993C194.108 36.3024 193.914 36.1087 193.72 35.915C193.333 35.4308 193.43 34.656 193.817 34.1718C194.011 33.8812 194.302 33.6876 194.592 33.5907C194.883 33.4939 195.173 33.397 195.464 33.4939C195.754 33.5907 196.045 33.6876 196.239 33.9781C196.529 34.2686 196.529 34.5592 196.529 34.9466C196.529 35.1403 196.723 35.334 196.916 35.334C197.207 35.334 197.304 35.1403 197.304 34.9466C197.401 33.9781 196.82 33.0096 195.948 32.7191C194.979 32.3317 193.914 32.7191 193.236 33.397C192.558 34.1718 192.268 35.2371 192.752 36.2056C193.139 37.0772 194.205 37.4646 195.173 37.3677C196.335 37.1741 197.207 36.1087 197.304 35.0434C197.304 34.8497 197.11 34.5592 196.916 34.5592C196.723 34.5592 196.529 34.7529 196.529 34.9466Z" fill="#323F5A"/>
<path d="M204.641 36.2521C205.497 35.445 205.626 34.1912 204.929 33.4516C204.232 32.7121 202.973 32.7669 202.117 33.574C201.26 34.3811 201.131 35.6349 201.828 36.3744C202.525 37.114 203.784 37.0592 204.641 36.2521Z" fill="#F5B900"/>
<path d="M178.477 45.2628C179.333 44.4557 179.462 43.2019 178.765 42.4624C178.068 41.7228 176.809 41.7776 175.953 42.5847C175.096 43.3919 174.967 44.6456 175.664 45.3852C176.361 46.1247 177.62 46.0699 178.477 45.2628Z" fill="#F5B900"/>
<path d="M187.135 43.9534C187.038 44.6313 186.554 45.2124 185.973 45.4061C185.682 45.503 185.295 45.503 185.004 45.4061C184.714 45.3093 184.52 45.1156 184.326 44.9219C183.939 44.4376 184.036 43.6629 184.423 43.1786C184.617 42.8881 184.907 42.6944 185.198 42.5975C185.488 42.5007 185.779 42.4038 186.07 42.5007C186.36 42.5975 186.651 42.6944 186.844 42.9849C187.135 43.2755 187.135 43.566 187.135 43.9534C187.135 44.1471 187.329 44.3408 187.619 44.3408C187.91 44.3408 188.007 44.1471 188.007 43.9534C188.103 42.9849 187.522 42.0165 186.651 41.7259C185.682 41.3385 184.617 41.7259 183.939 42.4038C183.261 43.1786 182.97 44.2439 183.455 45.2124C183.842 46.084 184.907 46.4714 185.876 46.3746C187.038 46.1809 187.91 45.1156 188.007 44.0503C188.007 43.8566 187.813 43.566 187.619 43.566C187.232 43.566 187.135 43.7597 187.135 43.9534Z" fill="#323F5A"/>
<path d="M195.464 43.9534C195.367 44.6313 194.883 45.2124 194.302 45.4061C194.011 45.503 193.624 45.503 193.333 45.4061C193.043 45.3093 192.849 45.1156 192.655 44.9219C192.268 44.4376 192.365 43.6629 192.752 43.1786C192.946 42.8881 193.236 42.6944 193.527 42.5975C193.817 42.5007 194.108 42.4038 194.398 42.5007C194.689 42.5975 194.98 42.6944 195.173 42.9849C195.464 43.2755 195.464 43.566 195.464 43.9534C195.464 44.1471 195.657 44.3408 195.851 44.3408C196.142 44.3408 196.239 44.1471 196.239 43.9534C196.335 42.9849 195.754 42.0165 194.883 41.7259C193.914 41.3385 192.849 41.7259 192.171 42.4038C191.493 43.1786 191.202 44.2439 191.687 45.2124C192.074 46.084 193.139 46.4714 194.108 46.3746C195.27 46.1809 196.142 45.1156 196.239 44.0503C196.239 43.8566 196.045 43.566 195.851 43.566C195.657 43.566 195.464 43.7597 195.464 43.9534Z" fill="#323F5A"/>
<path d="M203.559 45.2609C204.415 44.4538 204.544 43.1999 203.847 42.4604C203.15 41.7209 201.891 41.7757 201.035 42.5828C200.178 43.3899 200.049 44.6437 200.746 45.3832C201.443 46.1228 202.703 46.068 203.559 45.2609Z" fill="#F5B900"/>
<path d="M177.644 53.0569C177.547 53.7348 177.063 54.3159 176.482 54.5096C176.191 54.6065 175.804 54.6065 175.513 54.5096C175.223 54.4128 175.029 54.2191 174.835 54.0254C174.448 53.5412 174.545 52.7664 174.932 52.2821C175.126 51.9916 175.416 51.7979 175.707 51.7011C175.997 51.6042 176.288 51.5074 176.579 51.6042C176.869 51.7011 177.16 51.7979 177.353 52.0884C177.644 52.2821 177.741 52.6695 177.644 53.0569C177.644 53.2506 177.838 53.4443 178.031 53.4443C178.322 53.4443 178.419 53.2506 178.419 53.0569C178.515 52.0884 177.934 51.12 177.063 50.8294C176.094 50.442 175.029 50.8294 174.351 51.5074C173.673 52.2821 173.383 53.3475 173.867 54.3159C174.254 55.1876 175.32 55.5749 176.288 55.4781C177.45 55.2844 178.322 54.2191 178.419 53.1538C178.419 52.9601 178.225 52.6695 178.031 52.6695C177.838 52.5727 177.741 52.7664 177.644 53.0569Z" fill="#323F5A"/>
<path d="M186.07 53.0569C185.973 53.7348 185.488 54.3159 184.907 54.5096C184.617 54.6065 184.229 54.6065 183.939 54.5096C183.648 54.4128 183.455 54.2191 183.261 54.0254C182.874 53.5412 182.97 52.7664 183.358 52.2821C183.552 51.9916 183.842 51.7979 184.133 51.7011C184.423 51.6042 184.714 51.5074 185.004 51.6042C185.295 51.7011 185.585 51.7979 185.779 52.0884C185.973 52.2821 186.07 52.6695 186.07 53.0569C186.07 53.2506 186.263 53.4443 186.457 53.4443C186.747 53.4443 186.844 53.2506 186.844 53.0569C186.941 52.0884 186.36 51.12 185.488 50.8294C184.52 50.442 183.455 50.8294 182.777 51.5074C182.099 52.2821 181.808 53.3475 182.293 54.3159C182.68 55.1876 183.745 55.5749 184.714 55.4781C185.876 55.2844 186.747 54.2191 186.844 53.1538C186.844 52.9601 186.651 52.6695 186.457 52.6695C186.166 52.5727 186.07 52.7664 186.07 53.0569Z" fill="#323F5A"/>
<path d="M194.398 53.0569C194.302 53.7348 193.817 54.3159 193.236 54.5096C192.946 54.6065 192.558 54.6065 192.268 54.5096C191.977 54.4128 191.784 54.2191 191.59 54.0254C191.203 53.5412 191.299 52.7664 191.687 52.2821C191.88 51.9916 192.171 51.7979 192.462 51.7011C192.752 51.6042 193.043 51.5074 193.333 51.6042C193.624 51.7011 193.914 51.7979 194.108 52.0884C194.398 52.2821 194.398 52.6695 194.398 53.0569C194.398 53.2506 194.592 53.4443 194.786 53.4443C195.076 53.4443 195.173 53.2506 195.173 53.0569C195.27 52.0884 194.689 51.12 193.817 50.8294C192.849 50.442 191.784 50.8294 191.106 51.5074C190.428 52.2821 190.137 53.3475 190.621 54.3159C191.009 55.1876 192.074 55.5749 193.043 55.4781C194.205 55.2844 195.076 54.2191 195.173 53.1538C195.173 52.9601 194.98 52.6695 194.786 52.6695C194.592 52.5727 194.398 52.7664 194.398 53.0569Z" fill="#323F5A"/>
<path d="M202.727 53.0569C202.631 53.7348 202.146 54.3159 201.565 54.5096C201.275 54.6065 200.887 54.6065 200.597 54.5096C200.306 54.4128 200.112 54.2191 199.919 54.0254C199.531 53.5412 199.628 52.7664 200.016 52.2821C200.209 51.9916 200.5 51.7979 200.79 51.7011C201.081 51.6042 201.371 51.5074 201.662 51.6042C201.953 51.7011 202.243 51.7979 202.437 52.0884C202.727 52.2821 202.824 52.6695 202.727 53.0569C202.727 53.2506 202.921 53.4443 203.115 53.4443C203.405 53.4443 203.502 53.2506 203.502 53.0569C203.599 52.0884 203.018 51.12 202.146 50.8294C201.178 50.442 200.112 50.8294 199.435 51.5074C198.757 52.2821 198.466 53.3475 198.95 54.3159C199.338 55.1876 200.403 55.5749 201.371 55.4781C202.534 55.2844 203.405 54.2191 203.502 53.1538C203.502 52.9601 203.308 52.6695 203.115 52.6695C202.921 52.5727 202.824 52.7664 202.727 53.0569Z" fill="#323F5A"/>
<path d="M201.468 20.4194C201.275 22.2595 201.081 24.0028 200.79 25.8429C200.79 26.1334 200.693 26.3271 200.693 26.6176C200.693 26.8113 200.887 27.005 201.081 27.1019C201.371 27.1019 201.468 26.9082 201.468 26.6176C201.662 24.7775 201.856 23.0343 202.146 21.1942C202.146 20.9037 202.243 20.71 202.243 20.4194C202.243 20.2257 202.049 20.032 201.856 20.032C201.662 19.9352 201.468 20.1289 201.468 20.4194Z" fill="#192244"/>
<path d="M182.777 20.4194C182.583 22.2595 182.389 24.0028 182.099 25.8429C182.099 26.1334 182.002 26.3271 182.002 26.6176C182.002 26.8113 182.196 27.005 182.389 27.1019C182.68 27.1019 182.777 26.9082 182.874 26.6176C183.067 24.7775 183.261 23.0343 183.552 21.1942C183.552 20.9037 183.648 20.71 183.648 20.4194C183.648 20.2257 183.455 20.032 183.261 20.032C182.97 19.9352 182.777 20.1289 182.777 20.4194Z" fill="#192244"/>
<path d="M195.173 24.0028C197.885 24.0028 200.597 23.906 203.308 23.7123C205.633 23.5186 208.248 23.228 210.475 24.0997C212.993 25.165 213.671 27.2956 213.477 29.8136C213.284 32.4285 212.993 35.0434 212.703 37.6583C212.122 42.9849 211.734 48.5052 210.862 53.8318C210.475 56.1561 209.991 59.1584 207.473 60.03C205.342 60.7079 202.727 60.3205 200.5 60.3205C195.173 60.3205 189.75 60.2237 184.423 60.2237C181.808 60.2237 179.193 60.2237 176.482 60.1268C175.223 60.1268 173.964 60.1268 172.608 60.1268C171.349 60.1268 169.606 60.4174 168.443 59.9331C166.216 58.9647 167.088 54.7034 167.281 52.8633C167.572 50.1516 167.862 47.4398 168.153 44.7281C168.734 39.4984 169.218 34.2686 169.799 29.0389C169.993 27.683 170.09 26.424 171.155 25.4555C171.833 24.8744 172.705 24.487 173.576 24.2933C175.32 23.906 177.16 23.906 178.903 23.906C184.326 24.1965 189.75 24.0028 195.173 24.0028C195.754 24.0028 195.754 23.1312 195.173 23.1312C189.75 23.1312 184.326 23.3249 179 23.228C175.997 23.1312 171.93 23.0343 169.993 25.7461C169.412 26.5208 169.218 27.3925 169.121 28.2641C168.928 29.8136 168.831 31.3632 168.637 33.0096C168.347 36.0119 167.959 39.0141 167.669 42.0164C167.378 45.0187 166.991 48.0209 166.7 51.0232C166.41 53.5412 165.829 56.4466 166.506 58.8678C167.184 61.1922 169.121 61.0953 171.155 61.0953C174.157 61.0953 177.256 61.0953 180.259 61.1922C186.36 61.1922 192.462 61.289 198.466 61.289C201.081 61.289 203.793 61.5795 206.408 61.1922C208.441 60.9016 209.894 59.7394 210.669 57.8025C211.637 55.3813 211.831 52.6696 212.122 50.1516C212.509 47.1493 212.799 44.0502 213.09 41.0479C213.477 37.6583 213.768 34.1718 214.155 30.7821C214.446 28.2641 214.446 25.9398 212.315 24.1965C210.378 22.6469 207.86 22.4532 205.439 22.6469C201.953 22.8406 198.563 23.0343 195.076 23.1312C194.592 23.1312 194.592 24.0028 195.173 24.0028Z" fill="#323F5A"/>
<path d="M179 37.2716C186.551 30.1543 187.527 18.926 181.18 12.1923C174.833 5.45872 163.567 5.76973 156.016 12.887C148.465 20.0042 147.489 31.2326 153.835 37.9662C160.182 44.6999 171.449 44.3889 179 37.2716Z" fill="white"/>
<path d="M184.811 25.0681C183.842 32.4285 178.419 38.9172 171.446 41.3384C164.763 43.6628 156.919 42.0163 152.754 36.0118C148.687 30.0073 149.655 21.969 153.723 16.255C157.984 10.2504 165.635 6.57025 172.995 8.11981C180.937 9.66936 185.682 17.1266 184.811 25.0681C184.714 25.6492 185.585 25.6492 185.682 25.0681C186.457 17.8045 182.68 10.7347 175.804 8.02296C168.443 5.21439 160.018 8.02296 154.788 13.6401C149.655 19.1604 147.524 27.4893 150.914 34.4623C154.207 41.1447 161.761 44.2438 168.928 42.888C177.644 41.2416 184.617 33.7843 185.682 25.0681C185.779 24.487 184.907 24.487 184.811 25.0681Z" fill="#323F5A"/>
<path d="M175.61 19.3541C172.414 22.3563 169.218 25.3586 165.925 28.3609C165.441 28.7483 165.054 29.2325 164.57 29.6199C164.763 29.6199 164.957 29.6199 165.151 29.6199C163.504 27.6829 161.761 25.8428 160.115 23.9059C159.727 23.5185 159.146 24.0996 159.533 24.487C161.18 26.4239 162.923 28.264 164.57 30.201C164.763 30.3947 165.054 30.3947 165.151 30.201C168.347 27.1987 171.543 24.1964 174.835 21.1942C175.32 20.8068 175.707 20.3225 176.191 19.9352C176.675 19.5478 175.997 18.9667 175.61 19.3541Z" fill="#3F4FD3"/>
<path d="M385.188 262.828C388.19 266.315 387.415 271.835 383.541 275.321C379.667 278.808 374.05 278.808 371.048 275.321C368.046 271.835 368.82 266.315 372.694 262.828C373.663 261.956 374.728 261.279 375.89 260.891" fill="white"/>
<path d="M384.897 263.119C388.868 267.767 385.381 274.837 380.248 276.774C377.73 277.742 374.728 277.646 372.597 275.999C370.37 274.353 369.401 271.544 369.886 268.833C370.467 265.443 372.888 262.537 376.084 261.278C376.568 261.085 376.374 260.213 375.89 260.407C372.694 261.666 370.176 264.281 369.305 267.67C368.53 270.479 369.111 273.675 371.145 275.806C373.275 278.033 376.568 278.614 379.474 277.936C382.67 277.161 385.381 274.74 386.737 271.738C388.093 268.639 387.802 265.055 385.575 262.441C385.188 262.053 384.51 262.731 384.897 263.119Z" fill="#323F5A"/>
<path d="M379.377 260.213C380.055 260.213 380.733 260.31 381.41 260.504L379.377 260.213Z" fill="white"/>
<path d="M379.377 260.697C379.667 260.697 380.055 260.697 380.345 260.794C380.442 260.794 380.248 260.794 380.345 260.794H380.442C380.539 260.794 380.636 260.794 380.733 260.794C380.926 260.794 381.023 260.891 381.217 260.891C381.411 260.988 381.701 260.794 381.798 260.601C381.895 260.407 381.701 260.116 381.507 260.02C380.829 259.826 380.055 259.729 379.377 259.729C379.183 259.729 378.893 259.923 378.893 260.116C378.989 260.504 379.086 260.697 379.377 260.697Z" fill="#323F5A"/>
<path d="M375.742 266.104C375.977 265.885 376.019 265.549 375.836 265.354C375.653 265.158 375.315 265.178 375.081 265.397C374.846 265.617 374.805 265.953 374.987 266.148C375.17 266.343 375.508 266.324 375.742 266.104Z" fill="white"/>
<path d="M375.6 265.636C375.6 265.733 375.6 265.733 375.6 265.733C375.503 265.733 375.503 265.636 375.6 265.636C375.6 265.733 375.6 265.733 375.503 265.83C375.503 265.733 375.503 265.733 375.6 265.636C375.6 265.733 375.503 265.83 375.503 265.83C375.503 265.83 375.6 265.83 375.6 265.733L375.503 265.83H375.6C375.503 265.83 375.503 265.83 375.406 265.83H375.503C375.406 265.83 375.406 265.83 375.406 265.83H375.503H375.406H375.503C375.503 265.83 375.406 265.83 375.406 265.733C375.406 265.733 375.503 265.733 375.503 265.83C375.503 265.83 375.406 265.83 375.406 265.733C375.406 265.733 375.406 265.83 375.503 265.83C375.503 265.83 375.503 265.733 375.406 265.733V265.83V265.733V265.83V265.733V265.83C375.406 265.733 375.406 265.733 375.406 265.733V265.83C375.406 265.733 375.406 265.733 375.503 265.733C375.503 265.733 375.503 265.83 375.406 265.83C375.406 265.733 375.406 265.636 375.6 265.636C375.503 265.733 375.406 265.733 375.406 265.733C375.406 265.636 375.503 265.636 375.6 265.636C375.503 265.636 375.503 265.636 375.406 265.733C375.503 265.636 375.503 265.636 375.6 265.636H375.503C375.503 265.636 375.503 265.636 375.6 265.636C375.6 265.636 375.503 265.636 375.6 265.636C375.503 265.636 375.6 265.636 375.6 265.636C375.6 265.636 375.503 265.636 375.6 265.636C375.503 265.636 375.6 265.636 375.6 265.636C375.6 265.636 375.503 265.636 375.6 265.636C375.503 265.636 375.6 265.636 375.6 265.636C375.6 265.636 375.503 265.636 375.6 265.636C375.503 265.636 375.503 265.636 375.6 265.636C375.503 265.636 375.503 265.636 375.6 265.636C375.503 265.636 375.503 265.636 375.6 265.636C375.503 265.636 375.503 265.636 375.6 265.636V265.733C375.6 265.83 375.697 265.927 375.697 266.024C375.793 266.121 375.89 266.121 375.987 266.121C376.084 266.121 376.181 266.121 376.278 266.024C376.278 266.024 376.278 265.927 376.375 265.927C376.375 265.83 376.471 265.83 376.471 265.733C376.471 265.54 376.471 265.346 376.375 265.249C376.278 265.055 376.084 264.959 375.89 264.862C375.697 264.765 375.503 264.765 375.309 264.862C375.115 264.862 374.922 265.055 374.825 265.152C374.728 265.249 374.631 265.443 374.534 265.636C374.534 265.83 374.534 266.024 374.631 266.314C374.728 266.508 374.825 266.605 375.019 266.702C375.116 266.799 375.212 266.799 375.309 266.799C375.406 266.799 375.503 266.799 375.6 266.799C375.793 266.799 375.987 266.605 376.084 266.508C376.181 266.411 376.375 266.218 376.375 265.927C376.375 265.83 376.375 265.83 376.375 265.733C376.375 265.636 376.375 265.636 376.278 265.54C376.181 265.443 376.084 265.346 375.987 265.346C375.89 265.346 375.793 265.346 375.697 265.346C375.697 265.443 375.6 265.54 375.6 265.636Z" fill="#323F5A"/>
<path d="M382.037 266.103C382.271 265.883 382.313 265.547 382.13 265.352C381.947 265.157 381.609 265.176 381.375 265.396C381.14 265.615 381.099 265.951 381.281 266.146C381.464 266.341 381.802 266.322 382.037 266.103Z" fill="white"/>
<path d="M381.895 265.636C381.895 265.733 381.895 265.733 381.895 265.733C381.798 265.733 381.798 265.636 381.895 265.636C381.895 265.733 381.895 265.733 381.798 265.83C381.798 265.733 381.798 265.733 381.895 265.636C381.895 265.733 381.798 265.83 381.798 265.83C381.798 265.83 381.895 265.83 381.895 265.733L381.798 265.83H381.895C381.798 265.83 381.798 265.83 381.701 265.83H381.798H381.701H381.798H381.701H381.798C381.798 265.83 381.701 265.83 381.701 265.733C381.701 265.733 381.798 265.733 381.798 265.83C381.798 265.83 381.701 265.83 381.701 265.733C381.701 265.733 381.701 265.83 381.798 265.83C381.798 265.83 381.798 265.733 381.701 265.733V265.83V265.733V265.83V265.733V265.83C381.701 265.733 381.701 265.733 381.701 265.733V265.83C381.701 265.733 381.701 265.733 381.798 265.733C381.798 265.733 381.798 265.83 381.701 265.83C381.701 265.733 381.701 265.636 381.895 265.636C381.798 265.733 381.701 265.733 381.701 265.733C381.701 265.636 381.798 265.636 381.895 265.636C381.798 265.636 381.798 265.636 381.798 265.733C381.798 265.636 381.798 265.636 381.895 265.636H381.798C381.798 265.636 381.798 265.636 381.895 265.636C381.798 265.636 381.798 265.636 381.895 265.636C381.798 265.636 381.895 265.636 381.895 265.636C381.895 265.636 381.798 265.636 381.895 265.636C381.798 265.636 381.895 265.636 381.895 265.636C381.895 265.636 381.798 265.636 381.895 265.636C381.798 265.636 381.798 265.636 381.895 265.636C381.798 265.636 381.798 265.636 381.895 265.636C381.798 265.636 381.798 265.636 381.895 265.636C381.798 265.636 381.798 265.636 381.895 265.636C381.798 265.636 381.798 265.636 381.895 265.636C381.798 265.636 381.798 265.636 381.895 265.636V265.733C381.895 265.83 381.992 265.927 381.992 266.024C382.088 266.121 382.185 266.121 382.282 266.121C382.379 266.121 382.476 266.121 382.573 266.024C382.573 266.024 382.573 265.927 382.67 265.927C382.67 265.83 382.766 265.83 382.766 265.733C382.766 265.54 382.766 265.346 382.67 265.249C382.573 265.055 382.379 264.959 382.185 264.862C381.992 264.765 381.798 264.765 381.604 264.862C381.411 264.862 381.217 265.055 381.12 265.152C381.023 265.249 380.926 265.443 380.829 265.636C380.829 265.83 380.829 266.024 380.926 266.314C381.023 266.508 381.12 266.605 381.314 266.702C381.411 266.799 381.507 266.799 381.604 266.799C381.701 266.799 381.798 266.799 381.895 266.799C382.088 266.799 382.282 266.605 382.379 266.508C382.476 266.411 382.67 266.218 382.67 265.927C382.67 265.83 382.67 265.83 382.67 265.733C382.67 265.636 382.67 265.636 382.573 265.54C382.476 265.443 382.379 265.346 382.282 265.346C382.185 265.346 382.088 265.346 381.992 265.346C381.992 265.443 381.895 265.54 381.895 265.636Z" fill="#323F5A"/>
<path d="M374.631 270.866C375.019 272.125 376.181 272.997 377.633 272.997C379.086 272.997 380.442 272.125 381.217 270.866" fill="white"/>
<path d="M374.244 270.963C374.728 272.416 376.084 273.384 377.633 273.384C379.28 273.384 380.733 272.416 381.604 271.06C381.895 270.576 381.12 270.188 380.829 270.576C380.152 271.641 378.989 272.416 377.73 272.416C376.568 272.416 375.503 271.738 375.115 270.673C374.922 270.188 374.05 270.382 374.244 270.963Z" fill="#323F5A"/>
<path d="M407.559 262.828C410.562 266.315 409.787 271.835 405.913 275.321C402.039 278.808 396.422 278.808 393.42 275.321C390.417 271.835 391.192 266.315 395.066 262.828C396.034 261.956 397.1 261.279 398.262 260.891" fill="white"/>
<path d="M407.269 263.119C411.239 267.767 407.753 274.837 402.62 276.774C400.102 277.742 397.1 277.646 394.969 275.999C392.742 274.353 391.773 271.544 392.257 268.833C392.838 265.443 395.26 262.537 398.456 261.278C398.94 261.085 398.746 260.213 398.262 260.407C395.066 261.666 392.548 264.281 391.676 267.67C390.902 270.479 391.483 273.675 393.516 275.806C395.647 278.033 398.94 278.614 401.845 277.936C405.041 277.161 407.753 274.74 409.109 271.738C410.465 268.639 410.174 265.055 407.947 262.441C407.559 262.053 406.881 262.731 407.269 263.119Z" fill="#323F5A"/>
<path d="M401.748 260.213C402.426 260.213 403.104 260.31 403.782 260.504L401.748 260.213Z" fill="white"/>
<path d="M401.748 260.697C402.039 260.697 402.426 260.697 402.717 260.794C402.814 260.794 402.62 260.794 402.717 260.794H402.814C402.911 260.794 403.007 260.794 403.104 260.794C403.298 260.794 403.395 260.891 403.588 260.891C403.782 260.988 404.073 260.794 404.17 260.601C404.266 260.407 404.073 260.116 403.879 260.02C403.201 259.826 402.426 259.729 401.748 259.729C401.555 259.729 401.264 259.923 401.361 260.116C401.361 260.504 401.555 260.697 401.748 260.697Z" fill="#323F5A"/>
<path d="M398.188 266.049C398.422 265.83 398.464 265.494 398.281 265.299C398.099 265.104 397.761 265.123 397.526 265.342C397.292 265.562 397.25 265.898 397.433 266.093C397.616 266.288 397.954 266.269 398.188 266.049Z" fill="white"/>
<path d="M397.971 265.636C397.971 265.733 397.971 265.733 397.971 265.733C397.875 265.733 397.971 265.636 397.971 265.636C397.971 265.733 397.971 265.733 397.875 265.83C397.875 265.733 397.875 265.733 397.971 265.636C397.971 265.733 397.875 265.83 397.875 265.83C397.875 265.83 397.971 265.83 397.971 265.733L397.875 265.83H397.971C397.875 265.83 397.875 265.83 397.778 265.83H397.875H397.778H397.875H397.778H397.875C397.875 265.83 397.778 265.83 397.778 265.733C397.778 265.733 397.875 265.733 397.875 265.83C397.875 265.83 397.778 265.83 397.778 265.733C397.778 265.733 397.778 265.83 397.875 265.83C397.875 265.83 397.875 265.733 397.778 265.733V265.83V265.733V265.83V265.733V265.83C397.778 265.733 397.778 265.733 397.778 265.733V265.83C397.778 265.733 397.778 265.733 397.875 265.733C397.875 265.733 397.875 265.83 397.778 265.83C397.778 265.733 397.778 265.636 397.971 265.636C397.875 265.733 397.778 265.733 397.778 265.733C397.778 265.636 397.875 265.636 397.971 265.636C397.875 265.636 397.875 265.636 397.778 265.733C397.875 265.636 397.875 265.636 397.971 265.636H397.875H397.971C397.971 265.636 397.875 265.636 397.971 265.636C397.875 265.636 397.971 265.636 397.971 265.636C397.971 265.636 397.875 265.636 397.971 265.636C397.875 265.636 397.971 265.636 397.971 265.636C397.971 265.636 397.875 265.636 397.971 265.636C397.875 265.636 397.971 265.636 397.971 265.636C397.971 265.636 397.875 265.636 397.971 265.636C397.875 265.636 397.971 265.636 397.971 265.636V265.733C397.971 265.83 398.068 265.927 398.068 266.024C398.165 266.121 398.262 266.121 398.359 266.121C398.456 266.121 398.553 266.121 398.649 266.024C398.649 266.024 398.649 265.927 398.746 265.927C398.746 265.83 398.843 265.83 398.843 265.733C398.843 265.54 398.843 265.346 398.746 265.249C398.649 265.055 398.456 264.959 398.262 264.862C398.068 264.765 397.875 264.765 397.681 264.862C397.487 264.862 397.294 265.055 397.197 265.152C397.1 265.249 397.003 265.443 396.906 265.636C396.906 265.83 396.906 266.024 397.003 266.314C397.1 266.508 397.197 266.605 397.39 266.702C397.487 266.799 397.584 266.799 397.681 266.799C397.778 266.799 397.875 266.799 397.971 266.799C398.165 266.799 398.359 266.605 398.456 266.508C398.553 266.411 398.746 266.218 398.746 265.927C398.746 265.83 398.746 265.83 398.746 265.733C398.746 265.636 398.746 265.636 398.649 265.54C398.553 265.443 398.456 265.346 398.359 265.346C398.262 265.346 398.165 265.346 398.068 265.346C398.068 265.443 397.971 265.54 397.971 265.636Z" fill="#323F5A"/>
<path d="M404.482 266.047C404.717 265.828 404.758 265.492 404.576 265.297C404.393 265.102 404.055 265.121 403.821 265.34C403.586 265.56 403.545 265.896 403.727 266.091C403.91 266.286 404.248 266.267 404.482 266.047Z" fill="white"/>
<path d="M404.266 265.636C404.266 265.733 404.266 265.733 404.266 265.733C404.17 265.733 404.266 265.636 404.266 265.636C404.266 265.733 404.266 265.733 404.17 265.83C404.17 265.733 404.17 265.733 404.266 265.636C404.266 265.733 404.17 265.83 404.17 265.83C404.17 265.83 404.266 265.83 404.266 265.733L404.17 265.83H404.266C404.17 265.83 404.17 265.83 404.073 265.83H404.17C404.073 265.83 404.073 265.83 404.073 265.83H404.17H404.073H404.17C404.17 265.83 404.073 265.83 404.073 265.733C404.073 265.733 404.17 265.733 404.17 265.83C404.17 265.83 404.073 265.83 404.073 265.733C404.073 265.733 404.073 265.83 404.17 265.83C404.17 265.83 404.17 265.733 404.073 265.733V265.83V265.733V265.83V265.733V265.83C404.073 265.733 404.073 265.733 404.073 265.733V265.83C404.073 265.733 404.073 265.733 404.17 265.733C404.17 265.733 404.17 265.83 404.073 265.83C404.073 265.733 404.073 265.636 404.266 265.636C404.17 265.733 404.073 265.733 404.073 265.733C404.073 265.636 404.17 265.636 404.266 265.636C404.17 265.636 404.17 265.636 404.073 265.733C404.17 265.636 404.17 265.636 404.266 265.636H404.17H404.266C404.266 265.636 404.17 265.636 404.266 265.636C404.17 265.636 404.266 265.636 404.266 265.636C404.266 265.636 404.17 265.636 404.266 265.636C404.17 265.636 404.266 265.636 404.266 265.636C404.266 265.636 404.17 265.636 404.266 265.636C404.17 265.636 404.266 265.636 404.266 265.636C404.266 265.636 404.17 265.636 404.266 265.636C404.17 265.636 404.266 265.636 404.266 265.636C404.266 265.636 404.17 265.636 404.266 265.636C404.17 265.636 404.266 265.636 404.266 265.636V265.733C404.266 265.83 404.363 265.927 404.363 266.024C404.46 266.121 404.557 266.121 404.654 266.121C404.751 266.121 404.848 266.121 404.944 266.024C404.944 266.024 404.944 265.927 405.041 265.927C405.041 265.83 405.138 265.83 405.138 265.733C405.138 265.54 405.138 265.346 405.041 265.249C404.944 265.055 404.751 264.959 404.557 264.862C404.363 264.765 404.17 264.765 403.976 264.862C403.782 264.862 403.589 265.055 403.492 265.152C403.395 265.249 403.298 265.443 403.201 265.636C403.201 265.83 403.201 266.024 403.298 266.314C403.395 266.508 403.492 266.605 403.685 266.702C403.782 266.799 403.879 266.799 403.976 266.799C404.073 266.799 404.17 266.799 404.266 266.799C404.46 266.799 404.654 266.605 404.751 266.508C404.848 266.411 405.041 266.218 405.041 265.927C405.041 265.83 405.041 265.83 405.041 265.733C405.041 265.636 405.041 265.636 404.944 265.54C404.848 265.443 404.751 265.346 404.654 265.346C404.557 265.346 404.46 265.346 404.363 265.346C404.363 265.443 404.266 265.54 404.266 265.636Z" fill="#323F5A"/>
<path d="M397.003 270.866C397.39 272.125 398.552 272.997 400.005 272.997C401.458 272.997 402.814 272.125 403.589 270.866" fill="white"/>
<path d="M396.616 270.963C397.1 272.416 398.456 273.384 400.005 273.384C401.652 273.384 403.104 272.416 403.976 271.06C404.266 270.576 403.492 270.188 403.201 270.576C402.523 271.641 401.361 272.416 400.102 272.416C398.94 272.416 397.875 271.738 397.487 270.673C397.293 270.188 396.422 270.382 396.616 270.963Z" fill="#323F5A"/>
<path d="M429.737 262.828C432.739 266.315 431.965 271.835 428.091 275.321C424.217 278.808 418.6 278.808 415.598 275.321C412.595 271.835 413.37 266.315 417.244 262.828C418.212 261.956 419.278 261.279 420.44 260.891" fill="white"/>
<path d="M429.447 263.119C433.417 267.767 429.931 274.837 424.798 276.774C422.28 277.742 419.278 277.646 417.147 275.999C414.92 274.353 413.951 271.544 414.435 268.833C415.016 265.443 417.438 262.537 420.634 261.278C421.118 261.085 420.924 260.213 420.44 260.407C417.244 261.666 414.726 264.281 413.854 267.67C413.08 270.479 413.661 273.675 415.694 275.806C417.825 278.033 421.118 278.614 424.023 277.936C427.219 277.161 429.931 274.74 431.287 271.738C432.643 268.639 432.352 265.055 430.125 262.441C429.64 262.053 429.059 262.731 429.447 263.119Z" fill="#323F5A"/>
<path d="M423.83 260.213C424.508 260.213 425.186 260.31 425.863 260.504L423.83 260.213Z" fill="white"/>
<path d="M423.83 260.697C424.12 260.697 424.508 260.697 424.798 260.794C424.895 260.794 424.701 260.794 424.798 260.794H424.895C424.992 260.794 425.089 260.794 425.185 260.794C425.379 260.794 425.476 260.891 425.67 260.891C425.863 260.988 426.154 260.794 426.251 260.601C426.348 260.407 426.154 260.116 425.96 260.02C425.282 259.826 424.508 259.729 423.83 259.729C423.636 259.729 423.345 259.923 423.345 260.116C423.442 260.504 423.636 260.697 423.83 260.697Z" fill="#323F5A"/>
<path d="M420.278 266.074C420.513 265.855 420.554 265.519 420.372 265.324C420.189 265.128 419.851 265.148 419.617 265.367C419.382 265.587 419.34 265.923 419.523 266.118C419.706 266.313 420.044 266.294 420.278 266.074Z" fill="white"/>
<path d="M420.053 265.636C420.053 265.733 420.053 265.733 420.053 265.733V265.636C420.053 265.733 420.053 265.733 419.956 265.83C420.053 265.733 420.053 265.733 420.053 265.636C420.053 265.733 419.956 265.83 419.956 265.83C419.956 265.83 420.053 265.83 420.053 265.733L419.956 265.83H420.053C419.956 265.83 419.956 265.83 419.859 265.83H419.956C419.859 265.83 419.859 265.83 419.859 265.83H419.956H419.859H419.956C419.956 265.83 419.859 265.83 419.859 265.733C419.859 265.733 419.956 265.733 419.956 265.83C419.956 265.83 419.859 265.83 419.859 265.733C419.859 265.733 419.859 265.83 419.956 265.83C419.956 265.83 419.956 265.733 419.859 265.733V265.83V265.733V265.83V265.733V265.83C419.859 265.733 419.859 265.733 419.859 265.733V265.83C419.859 265.733 419.859 265.733 419.956 265.733C419.956 265.733 419.956 265.83 419.859 265.83C419.859 265.733 419.956 265.636 420.053 265.636C419.956 265.733 419.859 265.733 419.859 265.733C419.956 265.636 419.956 265.636 420.053 265.636C419.956 265.636 419.956 265.636 419.956 265.733C419.956 265.636 420.053 265.636 420.053 265.636H419.956H420.053V265.733C420.053 265.83 420.149 265.927 420.149 266.024C420.246 266.121 420.343 266.121 420.44 266.121C420.537 266.121 420.634 266.121 420.73 266.024C420.73 266.024 420.73 265.927 420.827 265.927C420.827 265.83 420.924 265.83 420.924 265.733C420.924 265.54 420.924 265.346 420.827 265.249C420.73 265.055 420.537 264.959 420.343 264.862C420.149 264.765 419.956 264.765 419.762 264.862C419.568 264.862 419.375 265.055 419.278 265.152C419.181 265.249 419.084 265.443 418.987 265.636C418.987 265.83 418.987 266.024 419.084 266.314C419.181 266.508 419.278 266.605 419.471 266.702C419.568 266.799 419.665 266.799 419.762 266.799C419.859 266.799 419.956 266.799 420.053 266.799C420.246 266.799 420.44 266.605 420.537 266.508C420.634 266.411 420.827 266.218 420.827 265.927C420.827 265.83 420.827 265.83 420.827 265.733C420.827 265.636 420.827 265.636 420.73 265.54C420.634 265.443 420.537 265.346 420.44 265.346C420.343 265.346 420.246 265.346 420.149 265.346C420.149 265.443 420.053 265.54 420.053 265.636Z" fill="#323F5A"/>
<path d="M426.572 266.073C426.807 265.853 426.848 265.517 426.666 265.322C426.483 265.127 426.145 265.146 425.911 265.366C425.676 265.585 425.634 265.921 425.817 266.116C426 266.311 426.338 266.292 426.572 266.073Z" fill="white"/>
<path d="M426.348 265.636C426.348 265.733 426.348 265.733 426.348 265.733V265.636C426.348 265.733 426.348 265.733 426.251 265.83C426.348 265.733 426.348 265.733 426.348 265.636C426.348 265.733 426.251 265.83 426.251 265.83C426.251 265.83 426.348 265.83 426.348 265.733L426.251 265.83H426.348C426.251 265.83 426.251 265.83 426.154 265.83H426.251C426.154 265.83 426.154 265.83 426.154 265.83H426.251H426.154H426.251C426.251 265.83 426.154 265.83 426.154 265.733C426.154 265.733 426.251 265.733 426.251 265.83C426.251 265.83 426.154 265.83 426.154 265.733C426.154 265.733 426.154 265.83 426.251 265.83C426.251 265.83 426.251 265.733 426.154 265.733V265.83V265.733V265.83V265.733V265.83C426.154 265.733 426.154 265.733 426.154 265.733V265.83C426.154 265.733 426.154 265.733 426.251 265.733C426.251 265.733 426.251 265.83 426.154 265.83C426.154 265.733 426.251 265.636 426.348 265.636C426.251 265.733 426.154 265.733 426.154 265.733C426.251 265.636 426.251 265.636 426.348 265.636C426.251 265.636 426.251 265.636 426.154 265.733C426.251 265.636 426.348 265.636 426.348 265.636H426.251H426.348V265.733C426.348 265.83 426.444 265.927 426.444 266.024C426.541 266.121 426.638 266.121 426.735 266.121C426.832 266.121 426.929 266.121 427.026 266.024C427.026 266.024 427.026 265.927 427.122 265.927C427.122 265.83 427.219 265.83 427.219 265.733C427.219 265.54 427.219 265.346 427.122 265.249C427.026 265.055 426.832 264.959 426.638 264.862C426.445 264.765 426.251 264.765 426.057 264.862C425.863 264.862 425.67 265.055 425.573 265.152C425.476 265.249 425.379 265.443 425.282 265.636C425.282 265.83 425.282 266.024 425.379 266.314C425.476 266.508 425.573 266.605 425.767 266.702C425.863 266.799 425.96 266.799 426.057 266.799C426.154 266.799 426.251 266.799 426.348 266.799C426.541 266.799 426.735 266.605 426.832 266.508C426.929 266.411 427.122 266.218 427.122 265.927C427.122 265.83 427.122 265.83 427.122 265.733C427.122 265.636 427.122 265.636 427.026 265.54C426.929 265.443 426.832 265.346 426.735 265.346C426.638 265.346 426.541 265.346 426.444 265.346C426.444 265.443 426.348 265.54 426.348 265.636Z" fill="#323F5A"/>
<path d="M419.181 270.866C419.568 272.125 420.73 272.997 422.183 272.997C423.636 272.997 424.992 272.125 425.767 270.866" fill="white"/>
<path d="M418.697 270.963C419.181 272.416 420.537 273.384 422.086 273.384C423.733 273.384 425.185 272.416 426.057 271.06C426.348 270.576 425.573 270.188 425.282 270.576C424.604 271.641 423.442 272.416 422.183 272.416C421.021 272.416 419.956 271.738 419.568 270.673C419.375 270.188 418.503 270.382 418.697 270.963Z" fill="#323F5A"/>
<path d="M385.284 299.34C384.8 299.63 384.219 299.824 383.638 299.824H364.365C362.622 299.824 361.363 298.371 361.557 296.628L362.235 291.592C362.913 286.362 367.755 282.101 372.985 282.101H379.57C382.863 282.101 385.478 283.747 386.931 286.265" fill="white"/>
<path d="M385.091 298.952C384.025 299.436 382.863 299.339 381.798 299.339C380.055 299.339 378.311 299.339 376.568 299.339C372.985 299.339 369.305 299.339 365.721 299.339C364.269 299.339 362.525 299.339 362.138 297.499C362.041 296.821 362.235 296.047 362.235 295.369C362.332 294.4 362.525 293.335 362.622 292.366C363.3 286.943 367.561 282.488 373.275 282.488C375.212 282.488 377.149 282.488 378.989 282.488C382.185 282.488 384.994 283.65 386.64 286.459C386.931 286.943 387.706 286.459 387.415 285.975C385.769 283.166 382.96 281.616 379.667 281.52C377.924 281.52 376.084 281.52 374.341 281.52C372.016 281.52 369.789 281.81 367.658 282.972C364.947 284.522 362.816 287.137 362.041 290.139C361.557 291.979 361.46 294.013 361.169 295.853C360.879 298.08 361.847 300.017 364.269 300.114C367.465 300.211 370.661 300.114 373.856 300.114C376.278 300.114 378.699 300.114 381.023 300.114C382.476 300.114 383.929 300.308 385.284 299.63C386.059 299.436 385.575 298.661 385.091 298.952Z" fill="#323F5A"/>
<path d="M409.399 286.168C411.433 283.65 414.532 282.004 417.825 282.004H424.411C429.64 282.004 433.321 286.265 432.643 291.495L431.965 296.531C431.771 298.274 430.125 299.727 428.381 299.727H409.206C408.625 299.727 408.14 299.63 407.753 299.34" fill="white"/>
<path d="M409.69 286.459C411.724 283.941 414.629 282.391 417.922 282.391C419.665 282.391 421.409 282.391 423.152 282.391C425.282 282.391 427.316 282.585 429.156 283.844C431.674 285.587 432.643 288.59 432.255 291.495C432.062 293.045 431.868 294.594 431.674 296.144C431.384 298.178 429.931 299.243 427.994 299.34C424.701 299.34 421.409 299.34 418.116 299.34C416.082 299.34 413.951 299.34 411.917 299.34C410.658 299.34 409.109 299.533 408.044 299.049C407.559 298.759 407.075 299.533 407.559 299.824C408.722 300.405 409.981 300.308 411.143 300.308C413.176 300.308 415.113 300.308 417.147 300.308C420.827 300.308 424.508 300.405 428.188 300.308C430.318 300.308 432.062 298.952 432.449 296.822C432.74 295.175 432.933 293.432 433.127 291.786C433.805 286.265 429.931 281.714 424.314 281.617C422.28 281.617 420.15 281.617 418.116 281.617C414.629 281.617 411.433 283.263 409.109 285.975C408.722 286.265 409.303 286.943 409.69 286.459Z" fill="#323F5A"/>
<path d="M406.107 299.824H386.834C385.091 299.824 383.832 298.371 384.025 296.628L384.703 291.592C385.381 286.362 390.224 282.101 395.453 282.101H402.039C407.269 282.101 410.949 286.362 410.271 291.592L409.593 296.628C409.496 298.371 407.85 299.824 406.107 299.824Z" fill="#F5B900"/>
<path d="M465.377 45.8902L465.183 47.0524C465.087 47.6335 465.28 48.1177 465.474 48.602C465.571 48.7957 465.571 49.0862 465.571 49.3767C465.474 50.1515 464.699 50.8294 463.828 50.8294C462.956 50.8294 462.472 50.1515 462.569 49.3767C462.665 48.9894 462.859 48.6988 463.053 48.4083C463.343 48.1177 463.537 47.6335 463.634 47.1493L463.731 46.665C463.924 45.2123 462.859 43.8564 461.309 43.8564H454.433C453.174 43.8564 452.206 44.7281 452.012 45.8902L451.818 47.0524C451.722 47.6335 451.915 48.1177 452.109 48.602C452.206 48.7957 452.206 49.0862 452.206 49.3767C452.109 50.1515 451.334 50.8294 450.463 50.8294C449.591 50.8294 449.107 50.1515 449.204 49.3767C449.3 48.9894 449.494 48.6988 449.688 48.4083C449.978 48.1177 450.172 47.6335 450.269 47.1493L450.366 46.665C450.559 45.2123 449.494 43.8564 447.945 43.8564H441.068C439.809 43.8564 438.841 44.7281 438.647 45.8902L438.454 47.0524C438.357 47.6335 438.55 48.1177 438.744 48.602C438.841 48.7957 438.841 49.0862 438.841 49.3767C438.744 50.1515 437.969 50.8294 437.098 50.8294C436.323 50.8294 435.742 50.1515 435.839 49.3767C435.936 48.9894 436.129 48.6988 436.323 48.4083C436.613 48.1177 436.807 47.6335 436.904 47.1493L437.001 46.665C437.195 45.2123 436.129 43.8564 434.58 43.8564H427.703C426.444 43.8564 425.476 44.7281 425.282 45.8902L425.089 47.0524C424.992 47.6335 425.185 48.1177 425.379 48.602C425.476 48.7957 425.476 49.0862 425.476 49.3767C425.379 50.1515 424.604 50.8294 423.733 50.8294C422.861 50.8294 422.377 50.1515 422.474 49.3767C422.571 48.9894 422.764 48.6988 422.958 48.4083C423.249 48.1177 423.442 47.6335 423.539 47.1493L423.636 46.665C423.83 45.2123 422.764 43.8564 421.215 43.8564H414.339C413.08 43.8564 412.111 44.7281 411.917 45.8902L411.724 47.0524C411.627 47.6335 411.821 48.1177 412.014 48.602C412.111 48.7957 412.111 49.0862 412.111 49.3767C412.014 50.1515 411.239 50.8294 410.368 50.8294C409.496 50.8294 409.012 50.1515 409.109 49.3767C409.206 48.9894 409.399 48.6988 409.593 48.4083C409.884 48.1177 410.077 47.6335 410.174 47.1493L410.271 46.665C410.465 45.2123 409.399 43.8564 407.85 43.8564H400.974C399.715 43.8564 398.746 44.7281 398.552 45.8902L398.359 47.0524C398.262 47.6335 398.456 48.1177 398.649 48.602C398.746 48.7957 398.746 49.0862 398.746 49.3767C398.649 50.1515 397.875 50.8294 397.003 50.8294C396.228 50.8294 395.647 50.1515 395.744 49.3767C395.841 48.9894 396.034 48.6988 396.228 48.4083C396.519 48.1177 396.712 47.6335 396.809 47.1493L396.906 46.665C397.1 45.2123 396.034 43.8564 394.485 43.8564H387.996C386.737 43.8564 385.769 44.7281 385.575 45.8902L376.278 103.902C376.084 105.354 377.149 106.71 378.699 106.71H464.796C466.055 106.71 467.023 105.839 467.217 104.677L476.515 46.665C476.708 45.2123 475.643 43.8564 474.093 43.8564H467.605C466.539 43.8564 465.571 44.7281 465.377 45.8902Z" fill="#D6D8E5"/>
<path opacity="0.5" d="M396.712 56.0593L389.643 100.125" stroke="#D6D8E5" stroke-miterlimit="10"/>
<path opacity="0.5" d="M409.98 56.2532L402.911 100.319" stroke="#D6D8E5" stroke-miterlimit="10"/>
<path opacity="0.5" d="M423.249 56.4465L416.179 100.512" stroke="#D6D8E5" stroke-miterlimit="10"/>
<path opacity="0.5" d="M436.613 56.6404L429.544 100.706" stroke="#D6D8E5" stroke-miterlimit="10"/>
<path opacity="0.5" d="M449.882 56.834L442.812 100.899" stroke="#D6D8E5" stroke-miterlimit="10"/>
<path opacity="0.5" d="M463.246 56.9309L456.177 101.093" stroke="#D6D8E5" stroke-miterlimit="10"/>
<path opacity="0.5" d="M388.674 59.7395H469.735" stroke="#D6D8E5" stroke-miterlimit="10"/>
<path opacity="0.5" d="M386.64 72.3293H467.701" stroke="#D6D8E5" stroke-miterlimit="10"/>
<path opacity="0.5" d="M384.607 84.9197H465.668" stroke="#D6D8E5" stroke-miterlimit="10"/>
<path opacity="0.5" d="M382.573 97.5098H463.634" stroke="#D6D8E5" stroke-miterlimit="10"/>
<path d="M463.924 68.6494H418.406L419.278 62.7417H464.893L463.924 68.6494Z" fill="#F5B900"/>
<path d="M409.787 81.8208H388.287L389.255 75.9131H410.755L409.787 81.8208Z" fill="#3F4FD3"/>
<path d="M438.357 81.4333H428.381L429.253 75.5256H439.325L438.357 81.4333Z" fill="#192244"/>
<path d="M401.748 88.4062C400.199 89.8589 398.552 91.2148 397.003 92.6675C396.809 92.8612 396.519 93.0549 396.325 93.2486C396.616 93.2486 396.906 93.2486 397.1 93.2486C396.325 92.377 395.55 91.4085 394.872 90.5369C394.388 89.9558 393.613 90.8274 394.097 91.3117C394.872 92.1833 395.647 93.1518 396.325 94.0234C396.519 94.3139 396.906 94.2171 397.1 94.0234C398.649 92.5707 400.296 91.2148 401.845 89.7621C402.039 89.5684 402.329 89.3747 402.523 89.181C403.104 88.6968 402.233 87.922 401.748 88.4062Z" fill="#3F4FD3"/>
<path d="M184.045 109.776C186.112 107.836 186.394 104.778 184.674 102.944C182.954 101.111 179.884 101.197 177.816 103.137C175.749 105.076 175.467 108.135 177.187 109.968C178.907 111.802 181.977 111.716 184.045 109.776Z" fill="#FF0000"/>
<path d="M185.569 111.4C188.69 108.473 189.143 103.886 186.581 101.155C184.019 98.4245 179.413 98.5843 176.292 101.512C173.172 104.44 172.718 109.027 175.28 111.757C177.842 114.488 182.448 114.328 185.569 111.4Z" stroke="#FF0000" stroke-width="0.5" stroke-miterlimit="10"/>
<path d="M195.173 102.255H196.045L195.076 109.519H199.628L199.531 110.391H194.205L195.173 102.255Z" fill="#FF0000" stroke="#FF0000" stroke-width="0.5" stroke-miterlimit="10"/>
<path d="M205.148 102.255L204.083 110.39H203.212L204.277 102.255H205.148Z" fill="#FF0000" stroke="#FF0000" stroke-width="0.5" stroke-miterlimit="10"/>
<path d="M215.414 102.255H216.383L211.831 110.487H211.056L208.635 102.255H209.7L211.734 109.228L215.414 102.255Z" fill="#FF0000" stroke="#FF0000" stroke-width="0.5" stroke-miterlimit="10"/>
<path d="M225.486 103.127H220.547L220.16 105.935H224.615L224.518 106.807H220.063L219.676 109.616H224.712L224.615 110.487H218.707L219.772 102.352H225.68L225.486 103.127Z" fill="#FF0000" stroke="#FF0000" stroke-width="0.5" stroke-miterlimit="10"/>
<path d="M267.421 279.97H148.299L149.558 275.224H268.68L267.421 279.97Z" fill="#D6D8E5"/>
<path d="M264.903 288.783H196.142L197.498 284.134H266.259L264.903 288.783Z" fill="#D6D8E5"/>
<path d="M262.288 298.468H169.315L170.574 293.819H263.547L262.288 298.468Z" fill="#D6D8E5"/>
<path d="M259.867 307.184H229.845L231.104 302.535H261.126L259.867 307.184Z" fill="#D6D8E5"/>
<path d="M210.766 243.265L202.146 247.72L193.527 252.078L195.464 243.265L197.498 234.452L204.18 238.81L210.766 243.265Z" fill="#3F4FD3"/>
<path d="M368.433 245.299H221.903L222.775 241.231H369.305L368.433 245.299Z" fill="#D6D8E5"/>
<path d="M316.717 245.299H221.903L222.775 241.231H317.588L316.717 245.299Z" fill="#3F4FD3"/>
<path d="M12.9067 235.033C12.9067 235.033 6.12742 236.001 3.222 243.749C0.31658 251.497 3.222 257.308 14.8437 253.434C26.4653 249.56 40.9924 241.812 45.8348 239.875C50.6772 237.938 56.5848 234.064 62.8799 235.033C69.175 236.001 76.8259 236.97 82.6368 233.096C85.1548 231.449 87.3823 229.512 88.9318 227.963C90.3845 226.607 89.5129 224.089 87.576 223.895C83.2178 223.508 77.0196 223.024 74.4047 223.121C70.0466 223.314 73.9205 219.44 73.9205 219.44C73.9205 219.44 73.9205 213.63 57.4565 226.22C57.4565 226.22 44.8663 231.062 38.087 232.031C31.3077 232.999 17.7491 234.064 12.9067 235.033Z" stroke="#192244" stroke-miterlimit="10"/>
<path d="M287.469 143.125C287.469 143.125 275.072 155.425 275.847 168.596C275.847 168.596 267.034 157.168 273.523 141.382C273.523 141.382 277.009 124.724 298.412 125.79C298.412 125.79 322.818 123.368 321.559 151.454C321.559 151.454 320.784 161.139 315.07 167.24C315.07 167.24 318.266 159.299 306.354 154.069C294.538 148.839 290.955 149.711 287.469 143.125Z" fill="#192244"/>
<path d="M272.07 162.204C269.649 164.916 270.811 169.177 273.329 171.501C273.91 171.986 274.491 172.47 274.879 173.148C275.266 173.729 275.363 174.504 275.46 175.182C276.622 180.896 279.334 186.222 283.982 189.515C288.534 192.808 295.12 193.873 300.543 191.355C304.03 189.709 306.935 186.803 309.066 183.51C311.196 180.218 312.552 176.537 313.714 172.857C314.005 173.826 315.361 174.019 316.232 173.535C317.104 173.051 317.782 172.082 318.169 171.114C319.622 167.918 319.913 164.431 319.138 161.139" stroke="#192244" stroke-miterlimit="10"/>
<path d="M287.856 180.024C288.921 182.445 291.343 184.092 293.957 184.285C294.539 184.285 295.216 184.285 295.798 184.092C297.928 183.51 299.478 181.477 300.446 179.443C300.543 179.249 300.253 179.055 300.156 179.249C299.962 179.346 300.156 179.637 300.349 179.637" stroke="#192244" stroke-miterlimit="10"/>
<path d="M286.016 163.657C285.435 163.56 284.757 163.56 284.176 163.657C283.982 164.141 284.079 164.625 284.466 164.916C284.854 165.11 285.435 164.916 285.629 164.529C285.822 164.044 285.435 163.56 284.951 163.657C285.048 164.141 285.338 164.625 285.822 164.625C286.307 164.625 286.694 163.947 286.307 163.657C286.21 163.56 286.016 163.56 285.919 163.56C285.435 163.56 285.048 163.657 284.563 163.851" stroke="#192244" stroke-miterlimit="10"/>
<path d="M306.063 163.463C305.385 163.366 304.514 164.141 304.804 164.916C305.095 165.691 306.063 165.787 306.644 165.206C306.935 164.819 307.032 164.238 306.741 163.85C306.451 163.463 305.87 163.463 305.482 163.754C305.192 163.947 305.095 164.432 305.385 164.625C305.482 164.722 305.579 164.722 305.773 164.722C306.063 164.722 306.451 164.722 306.644 164.432C306.838 164.141 306.451 163.754 306.257 164.044" stroke="#192244" stroke-miterlimit="10"/>
<path d="M281.561 161.333C281.367 160.848 281.948 160.461 282.433 160.267C284.66 159.589 286.984 159.686 289.018 160.558" stroke="#192244" stroke-miterlimit="10"/>
<path d="M303.352 160.267C305.676 158.621 308.775 158.911 311.196 159.977C311.293 160.073 311.487 160.17 311.39 160.267C311.39 160.364 311.099 160.267 311.196 160.17" stroke="#192244" stroke-miterlimit="10"/>
<path d="M293.279 168.402C292.698 169.952 292.214 171.598 291.924 173.245C291.924 173.535 291.827 173.826 292.02 174.019C292.117 174.213 292.311 174.213 292.602 174.31C293.376 174.407 294.248 174.504 295.12 174.407" stroke="#192244" stroke-miterlimit="10"/>
<path d="M248.246 227.479C246.987 212.662 258.608 200.846 272.457 197.553C276.331 196.585 280.399 196.391 284.37 196.876C284.37 196.585 284.37 196.294 284.37 196.004C280.786 196.682 277.978 200.749 277.978 204.333C277.978 206.657 278.849 208.885 280.108 210.918C281.27 212.855 282.626 214.695 284.37 216.051C287.953 218.763 293.183 218.182 297.057 216.632C300.737 215.083 304.03 212.274 305.482 208.4C307.032 204.333 306.451 199.394 303.061 196.488C302.964 196.779 302.867 196.972 302.771 197.263C304.901 197.36 306.935 198.135 309.066 198.425C311.293 198.812 313.521 199.2 315.651 199.781C319.331 200.943 322.915 202.493 325.917 204.72C332.6 209.563 336.28 218.182 334.827 226.414C334.73 226.995 335.602 227.189 335.699 226.608C336.861 220.216 335.021 213.34 330.953 208.303C326.982 203.267 320.881 200.265 314.78 198.619C312.746 198.038 310.615 197.844 308.485 197.36C306.548 196.972 304.707 196.294 302.674 196.294C302.286 196.294 302.093 196.779 302.383 197.069C305.095 199.394 305.87 203.074 305.095 206.463C304.32 210.144 301.705 213.049 298.509 214.889C295.216 216.729 290.761 217.698 287.081 216.536C284.951 215.858 283.401 214.211 282.045 212.468C280.786 210.822 279.721 208.981 279.14 207.044C278.462 204.914 278.656 202.686 279.721 200.749C280.689 198.909 282.336 197.263 284.466 196.876C284.854 196.779 284.854 196.101 284.466 196.004C270.424 194.067 254.734 201.718 249.117 215.083C247.471 218.957 246.89 223.218 247.277 227.382C247.471 228.06 248.342 228.06 248.246 227.479Z" fill="#192244"/>
<path d="M284.66 189.806C284.176 192.13 283.885 194.551 283.692 196.876" stroke="#192244" stroke-miterlimit="10"/>
<path d="M303.158 190.193C302.867 192.324 302.577 194.454 302.286 196.488" stroke="#192244" stroke-miterlimit="10"/>
<path d="M285.532 127.823C285.532 127.823 280.786 119.785 286.597 114.071C292.311 108.357 295.023 107.485 301.124 108.357C307.226 109.229 322.915 113.78 309.647 130.438" fill="#192244"/>
<path opacity="0.5" d="M196.142 227.866H387.028" stroke="#D6D8E5" stroke-miterlimit="10"/>
<path d="M72.6614 222.54L73.4362 220.119C73.4362 220.119 73.4362 220.119 73.4362 220.022L78.4723 210.24C78.7628 209.562 79.5376 209.175 80.2155 209.175L93.7741 209.369C94.2584 209.369 94.5489 209.853 94.3552 210.24L88.0602 223.702C87.9633 223.799 87.8665 223.896 87.6728 223.896L72.952 222.927C72.7583 223.024 72.5646 222.733 72.6614 222.54Z" fill="#192244"/>
<path d="M4.67468 289.267H120.891" stroke="black" stroke-miterlimit="10"/>
<g opacity="0.6">
<g opacity="0.6">
<path opacity="0.6" d="M222.387 100.125H265.484C268.583 100.125 270.617 102.643 270.036 105.742L266.647 124.046C266.065 127.145 263.063 129.663 259.964 129.663H254.541C254.347 129.663 254.25 129.76 254.153 129.954L251.926 141.672C251.926 141.963 251.538 142.06 251.345 141.963L237.883 129.663C237.883 129.663 237.786 129.566 237.689 129.566H216.867C213.768 129.566 211.734 127.048 212.315 123.949L215.705 105.645C216.286 102.643 219.288 100.125 222.387 100.125Z" fill="white"/>
<g opacity="0.6">
<path opacity="0.6" d="M222.387 100.512C233.622 100.512 244.759 100.512 255.993 100.512C258.511 100.512 260.933 100.512 263.451 100.512C265.388 100.512 267.615 100.318 268.971 102.158C270.52 104.289 269.261 107.582 268.874 109.906C268.196 113.393 267.615 116.879 266.937 120.269C266.356 123.174 266.162 126.177 263.547 128.017C261.901 129.179 260.158 129.179 258.221 129.179C257.349 129.179 256.574 129.179 255.703 129.179C255.219 129.179 254.637 129.082 254.25 129.276C253.572 129.663 253.572 130.922 253.475 131.6C253.185 133.343 252.797 134.99 252.507 136.733C252.216 138.186 252.023 139.541 251.732 140.994C251.732 141.188 251.538 141.672 251.829 141.575C251.732 141.575 251.345 141.091 251.248 141.091C249.02 139.057 246.696 136.927 244.469 134.893C242.532 133.15 240.595 131.019 238.464 129.469C238.077 129.179 237.786 129.179 237.302 129.179C236.236 129.179 235.074 129.179 234.009 129.179C230.523 129.179 227.036 129.179 223.55 129.179C221.419 129.179 219.288 129.276 217.158 129.179C214.349 129.082 212.509 126.854 212.993 124.143C213.09 123.465 213.284 122.787 213.381 122.109C214.446 116.685 215.317 111.262 216.48 105.839C216.77 102.933 219.385 100.609 222.387 100.512C222.968 100.512 222.968 99.6404 222.387 99.6404C219.869 99.7372 217.545 101.093 216.189 103.321C215.608 104.289 215.317 105.451 215.124 106.517C214.543 109.809 213.865 113.102 213.284 116.395C212.799 118.913 212.315 121.334 211.928 123.852C211.347 127.532 213.768 130.05 217.351 130.05C223.646 130.05 229.941 130.05 236.14 130.05C236.527 130.05 237.011 130.05 237.399 130.05C237.592 130.05 237.786 130.147 237.689 130.05C238.464 130.438 239.142 131.406 239.723 131.891C242.435 134.312 245.05 136.733 247.761 139.154C248.73 140.026 249.698 140.897 250.667 141.769C251.248 142.253 252.023 142.834 252.41 141.769C252.797 140.897 252.797 139.638 252.991 138.767C253.378 136.927 253.669 135.086 254.056 133.343C254.153 132.568 254.347 131.891 254.444 131.116C254.444 130.922 254.444 130.147 254.637 130.05C254.734 129.954 255.703 130.05 255.896 130.05C256.865 130.05 257.93 130.05 258.899 130.05C260.739 130.05 262.385 129.857 264.032 128.791C265.678 127.629 266.743 125.983 267.228 124.046C268.39 118.235 269.455 112.327 270.52 106.517C270.714 105.258 270.908 104.095 270.424 102.933C269.649 100.899 267.712 99.8341 265.678 99.7372C264.419 99.7372 263.16 99.7372 261.901 99.7372C249.117 99.7372 236.333 99.7372 223.646 99.7372C223.356 99.7372 222.968 99.7372 222.678 99.7372C221.806 99.6404 221.806 100.512 222.387 100.512Z" fill="#323F5A"/>
</g>
</g>
<g opacity="0.6">
<path opacity="0.6" d="M265 108.938H219.482L219.966 106.71H265.484L265 108.938Z" fill="#3F4FD3"/>
<path opacity="0.6" d="M263.935 114.555H226.552L227.036 112.327H264.419L263.935 114.555Z" fill="#3F4FD3"/>
<path opacity="0.6" d="M262.87 120.656H237.592L237.98 118.332H263.257L262.87 120.656Z" fill="#3F4FD3"/>
</g>
</g>
<g opacity="0.6">
<g opacity="0.6">
<path opacity="0.6" d="M385.769 164.044H342.672C339.572 164.044 336.764 166.562 336.28 169.661L333.858 187.965C333.471 191.064 335.602 193.582 338.798 193.582H344.221C344.415 193.582 344.512 193.679 344.512 193.873L342.962 205.591C342.962 205.882 343.253 205.979 343.446 205.882L360.782 193.582C360.879 193.582 360.879 193.486 360.976 193.486H381.798C384.897 193.486 387.706 190.967 388.19 187.868L390.611 169.564C390.998 166.562 388.868 164.044 385.769 164.044Z" fill="white"/>
<g opacity="0.6">
<path opacity="0.6" d="M385.769 163.56C373.76 163.56 361.847 163.56 349.838 163.56C347.708 163.56 345.577 163.56 343.35 163.56C340.057 163.56 337.055 165.303 336.086 168.499C335.796 169.274 335.796 170.242 335.699 171.017C335.505 172.566 335.311 174.213 335.118 175.762C334.633 179.249 334.246 182.735 333.762 186.222C333.665 187.19 333.471 188.159 333.568 189.127C333.762 191.355 335.311 193.195 337.539 193.776C338.991 194.163 340.638 193.97 342.187 193.97C342.769 193.97 343.737 193.776 344.318 193.97C344.512 194.066 344.221 193.679 344.221 193.97C344.221 194.163 344.124 194.357 344.124 194.551C343.64 197.94 343.253 201.33 342.769 204.623C342.672 205.301 342.478 206.753 343.737 206.172C344.318 205.882 344.899 205.398 345.383 205.01C348.289 202.976 351.097 200.943 354.003 198.909C355.456 197.844 356.908 196.875 358.361 195.81C359.136 195.229 360.007 194.454 360.879 194.066C361.266 193.873 361.557 193.97 362.041 193.97C363.397 193.97 364.85 193.97 366.206 193.97C369.983 193.97 373.663 193.97 377.44 193.97C379.861 193.97 382.766 194.357 384.994 193.195C387.028 192.13 388.384 190.193 388.771 187.868C388.868 187.093 388.965 186.319 389.062 185.447C389.546 181.864 390.03 178.28 390.514 174.6C390.805 172.179 391.773 168.983 390.805 166.659C389.836 164.722 387.899 163.656 385.769 163.56C385.188 163.56 385.188 164.431 385.769 164.431C388.674 164.528 390.514 166.852 390.224 169.661C390.127 170.436 390.03 171.211 389.933 171.985C389.449 175.472 389.062 178.958 388.577 182.445C388.384 183.801 388.19 185.253 387.996 186.609C387.802 187.771 387.706 188.837 387.125 189.902C386.059 191.936 384.025 193.098 381.701 193.098C380.829 193.098 379.861 193.098 378.989 193.098C375.503 193.098 372.016 193.098 368.53 193.098C366.98 193.098 365.334 193.098 363.784 193.098C362.913 193.098 361.944 193.001 361.073 193.098C360.588 193.195 360.395 193.389 360.007 193.582C359.039 194.26 358.07 194.938 357.102 195.616C354.197 197.65 351.194 199.78 348.289 201.814C347.03 202.686 345.868 203.557 344.609 204.429C344.318 204.623 343.931 204.913 343.64 205.107C343.543 205.204 343.446 205.204 343.35 205.301C343.156 205.591 343.446 205.107 343.446 205.494C343.446 204.526 343.737 203.364 343.834 202.395C344.028 200.652 344.318 198.812 344.512 197.069C344.609 196.1 344.996 194.744 344.899 193.776C344.802 192.614 343.156 193.001 342.381 193.001C340.832 193.001 339.088 193.195 337.539 192.904C335.118 192.323 333.955 190.096 334.246 187.771C334.827 182.057 335.699 176.343 336.473 170.629C336.667 169.37 336.861 168.111 337.636 167.046C338.798 165.4 340.638 164.431 342.672 164.431C344.221 164.431 345.868 164.431 347.417 164.431C359.814 164.431 372.307 164.431 384.703 164.431C384.994 164.431 385.284 164.431 385.575 164.431C386.253 164.431 386.253 163.56 385.769 163.56Z" fill="#323F5A"/>
</g>
</g>
<g opacity="0.6">
<path opacity="0.6" d="M340.25 172.857H385.769L386.059 170.629H340.541L340.25 172.857Z" fill="#3F4FD3"/>
<path opacity="0.6" d="M339.573 178.474H376.956L377.246 176.247H339.863L339.573 178.474Z" fill="#3F4FD3"/>
<path opacity="0.6" d="M338.798 184.575H363.978L364.269 182.251H339.088L338.798 184.575Z" fill="#3F4FD3"/>
</g>
</g>
<defs>
<linearGradient id="paint0_linear" x1="316.375" y1="55.6122" x2="234.009" y2="380.394" gradientUnits="userSpaceOnUse">
<stop stop-color="#EDEDEF"/>
<stop offset="1" stop-color="#D6D8E5"/>
</linearGradient>
<linearGradient id="paint1_linear" x1="219.023" y1="40.7723" x2="132.09" y2="43.231" gradientUnits="userSpaceOnUse">
<stop offset="0.00394759" stop-color="#3F4FD3"/>
<stop offset="0.4921" stop-color="#A4ACEA" stop-opacity="0.5099"/>
<stop offset="0.838" stop-color="#E6E8F9" stop-opacity="0.1627"/>
<stop offset="1" stop-color="white" stop-opacity="0"/>
</linearGradient>
<linearGradient id="paint2_linear" x1="439.811" y1="73.1063" x2="345.882" y2="75.7629" gradientUnits="userSpaceOnUse">
<stop offset="0.00394759" stop-color="#3F4FD3"/>
<stop offset="0.4921" stop-color="#A4ACEA" stop-opacity="0.5099"/>
<stop offset="0.838" stop-color="#E6E8F9" stop-opacity="0.1627"/>
<stop offset="1" stop-color="white" stop-opacity="0"/>
</linearGradient>
</defs>
</svg>
